26/11 23:04:16 FINE aw.TACAgent|Log for game 21 started
************************************************************
* Log for game 21 started
************************************************************


26/11 23:04:16 FINE aw.TACAgent|Starting up game: 21
26/11 23:04:16 FINE aw.DummyAgent|Game 21 started!
26/11 23:04:16 FINE aw.DummyAgent|Quote for auction: Good Hotel 2 has HQW ? false, HQW:-1
26/11 23:04:16 FINE aw.DummyAgent|Auction 8 closed!
26/11 23:04:16 FINE aw.DummyAgent|Bid Updated: id=20179 auction=13 state=valid
26/11 23:04:16 FINE aw.DummyAgent|Bid Updated: id=20180 auction=15 state=valid
26/11 23:04:16 FINE aw.DummyAgent|Auction 9 closed!
26/11 23:04:16 FINE aw.DummyAgent|Auction 10 closed!
26/11 23:04:16 FINE aw.DummyAgent|Auction 12 closed!
26/11 23:04:16 FINE aw.DummyAgent|Auction 14 closed!
26/11 23:04:16 FINE aw.DummyAgent|Bid Updated: id=20173 auction=0 state=transacted
26/11 23:04:16 FINE aw.DummyAgent|Bid Updated: id=20174 auction=1 state=transacted
26/11 23:04:16 FINE aw.DummyAgent|Bid Updated: id=20175 auction=2 state=transacted
26/11 23:04:16 FINE aw.DummyAgent|Bid Updated: id=20176 auction=3 state=transacted
26/11 23:04:16 FINE aw.DummyAgent|Bid Updated: id=20177 auction=4 state=transacted
26/11 23:04:16 FINE aw.DummyAgent|Bid Updated: id=20178 auction=5 state=transacted
26/11 23:05:01 FINE aw.DummyAgent|Bid Updated: id=20179 auction=13 state=valid
26/11 23:05:01 FINE aw.DummyAgent|Bid Updated: id=20180 auction=15 state=valid
26/11 23:05:02 FINE aw.DummyAgent|Quote for auction: Good Hotel 2 has HQW ? true, HQW:2
26/11 23:05:02 FINE aw.DummyAgent|Quote for auction: Good Hotel 4 has HQW ? true, HQW:1
26/11 23:05:02 FINE aw.DummyAgent|Auction 11 closed!
26/11 23:05:02 FINE aw.DummyAgent|Bid Updated: id=20182 auction=13 state=valid
26/11 23:05:02 FINE aw.DummyAgent|Bid Updated: id=20183 auction=15 state=valid
