29/11 03:38:02 FINE aw.TACAgent|Log for game 31 started
************************************************************
* Log for game 31 started
************************************************************


29/11 03:38:02 FINE aw.TACAgent|Starting up game: 31
29/11 03:38:02 FINE aw.PostTraumaticAgent|Game 31 started!
29/11 03:38:02 FINE aw.PostTraumaticAgent|!!!!!!!!!!!!!!!!!!!!!!! This is flight prices collected called !
29/11 03:38:02 FINE aw.PostTraumaticAgent|Bid Updated: id=25143 auction=8 state=valid
29/11 03:38:02 FINE aw.PostTraumaticAgent|Bid Updated: id=25144 auction=9 state=valid
29/11 03:38:02 FINE aw.PostTraumaticAgent|Bid Updated: id=25145 auction=10 state=valid
29/11 03:38:02 FINE aw.PostTraumaticAgent|Bid Updated: id=25146 auction=11 state=valid
29/11 03:38:02 FINE aw.PostTraumaticAgent|Bid Updated: id=25147 auction=13 state=valid
29/11 03:38:02 FINE aw.PostTraumaticAgent|Bid Updated: id=25148 auction=14 state=valid
29/11 03:38:02 FINE aw.PostTraumaticAgent|Bid Updated: id=25149 auction=15 state=valid
29/11 03:38:02 FINE aw.PostTraumaticAgent|Bid Updated: id=25142 auction=7 state=transacted
29/11 03:38:12 FINE aw.PostTraumaticAgent|!!!!!!!!!!!!!!!!!!!!!!! This is flight prices collected called !
29/11 03:38:12 FINE aw.PostTraumaticAgent|Bid Updated: id=25150 auction=7 state=transacted
29/11 03:38:22 FINE aw.PostTraumaticAgent|!!!!!!!!!!!!!!!!!!!!!!! This is flight prices collected called !
29/11 03:38:22 FINE aw.PostTraumaticAgent|Bid Updated: id=25151 auction=7 state=transacted
29/11 03:38:32 FINE aw.PostTraumaticAgent|!!!!!!!!!!!!!!!!!!!!!!! This is flight prices collected called !
29/11 03:38:32 FINE aw.PostTraumaticAgent|Bid Updated: id=25152 auction=7 state=transacted
29/11 03:38:42 FINE aw.PostTraumaticAgent|!!!!!!!!!!!!!!!!!!!!!!! This is flight prices collected called !
29/11 03:38:42 FINE aw.PostTraumaticAgent|Bid Updated: id=25153 auction=7 state=transacted
29/11 03:38:47 FINE aw.PostTraumaticAgent|Bid Updated: id=25143 auction=8 state=valid
29/11 03:38:47 FINE aw.PostTraumaticAgent|Bid Updated: id=25144 auction=9 state=valid
29/11 03:38:47 FINE aw.PostTraumaticAgent|Bid Updated: id=25145 auction=10 state=valid
29/11 03:38:47 FINE aw.PostTraumaticAgent|Bid Updated: id=25146 auction=11 state=valid
29/11 03:38:47 FINE aw.PostTraumaticAgent|Bid Updated: id=25147 auction=13 state=valid
29/11 03:38:47 FINE aw.PostTraumaticAgent|Bid Updated: id=25148 auction=14 state=valid
29/11 03:38:47 FINE aw.PostTraumaticAgent|Bid Updated: id=25149 auction=15 state=valid
29/11 03:38:52 FINE aw.PostTraumaticAgent|!!!!!!!!!!!!!!!!!!!!!!! This is flight prices collected called !
29/11 03:38:52 FINE aw.PostTraumaticAgent|Bid Updated: id=25154 auction=7 state=transacted
29/11 03:39:02 FINE aw.PostTraumaticAgent|Quote for auction: Cheap Hotel 1 has HQW ? true, HQW:2
29/11 03:39:02 FINE aw.PostTraumaticAgent|Quote for auction: Cheap Hotel 3 has HQW ? true, HQW:0
29/11 03:39:02 FINE aw.PostTraumaticAgent|Quote for auction: Cheap Hotel 4 has HQW ? true, HQW:1
29/11 03:39:02 FINE aw.PostTraumaticAgent|Quote for auction: Good Hotel 2 has HQW ? true, HQW:3
29/11 03:39:02 FINE aw.PostTraumaticAgent|Quote for auction: Good Hotel 3 has HQW ? true, HQW:4
29/11 03:39:02 FINE aw.PostTraumaticAgent|Quote for auction: Good Hotel 4 has HQW ? true, HQW:1
29/11 03:39:02 FINE aw.PostTraumaticAgent|!!!!!!!!!!!!!!!!!!!!!!! This is flight prices collected called !
29/11 03:39:02 FINE aw.PostTraumaticAgent|Bid Updated: id=25155 auction=8 state=valid
29/11 03:39:02 FINE aw.PostTraumaticAgent|Auction 9 closed!
29/11 03:39:02 FINE aw.PostTraumaticAgent|Bid Updated: id=25156 auction=10 state=valid
29/11 03:39:02 FINE aw.PostTraumaticAgent|Bid Updated: id=25157 auction=11 state=valid
29/11 03:39:02 FINE aw.PostTraumaticAgent|Bid Updated: id=25158 auction=13 state=valid
29/11 03:39:02 FINE aw.PostTraumaticAgent|Bid Updated: id=25159 auction=14 state=valid
29/11 03:39:02 FINE aw.PostTraumaticAgent|Bid Updated: id=25160 auction=15 state=valid
29/11 03:39:02 FINE aw.PostTraumaticAgent|Bid Updated: id=25161 auction=7 state=transacted
29/11 03:39:12 FINE aw.PostTraumaticAgent|!!!!!!!!!!!!!!!!!!!!!!! This is flight prices collected called !
29/11 03:39:12 FINE aw.PostTraumaticAgent|Bid Updated: id=25281 auction=7 state=transacted
29/11 03:39:17 FINE aw.PostTraumaticAgent|Bid Updated: id=25155 auction=8 state=valid
29/11 03:39:17 FINE aw.PostTraumaticAgent|Bid Updated: id=25156 auction=10 state=valid
29/11 03:39:17 FINE aw.PostTraumaticAgent|Bid Updated: id=25157 auction=11 state=valid
29/11 03:39:17 FINE aw.PostTraumaticAgent|Bid Updated: id=25158 auction=13 state=valid
29/11 03:39:17 FINE aw.PostTraumaticAgent|Bid Updated: id=25159 auction=14 state=valid
29/11 03:39:17 FINE aw.PostTraumaticAgent|Bid Updated: id=25160 auction=15 state=valid
29/11 03:39:22 FINE aw.PostTraumaticAgent|!!!!!!!!!!!!!!!!!!!!!!! This is flight prices collected called !
29/11 03:39:22 FINE aw.PostTraumaticAgent|Bid Updated: id=25282 auction=7 state=transacted
29/11 03:39:32 FINE aw.PostTraumaticAgent|!!!!!!!!!!!!!!!!!!!!!!! This is flight prices collected called !
29/11 03:39:32 FINE aw.PostTraumaticAgent|Bid Updated: id=25283 auction=7 state=transacted
29/11 03:39:42 FINE aw.PostTraumaticAgent|!!!!!!!!!!!!!!!!!!!!!!! This is flight prices collected called !
29/11 03:39:42 FINE aw.PostTraumaticAgent|Bid Updated: id=25284 auction=7 state=transacted
29/11 03:39:47 FINE aw.PostTraumaticAgent|Bid Updated: id=25155 auction=8 state=valid
29/11 03:39:47 FINE aw.PostTraumaticAgent|Bid Updated: id=25156 auction=10 state=valid
29/11 03:39:47 FINE aw.PostTraumaticAgent|Bid Updated: id=25157 auction=11 state=valid
29/11 03:39:47 FINE aw.PostTraumaticAgent|Bid Updated: id=25158 auction=13 state=valid
29/11 03:39:47 FINE aw.PostTraumaticAgent|Bid Updated: id=25159 auction=14 state=valid
29/11 03:39:47 FINE aw.PostTraumaticAgent|Bid Updated: id=25160 auction=15 state=valid
29/11 03:39:52 FINE aw.PostTraumaticAgent|!!!!!!!!!!!!!!!!!!!!!!! This is flight prices collected called !
29/11 03:39:52 FINE aw.PostTraumaticAgent|Bid Updated: id=25285 auction=7 state=transacted
29/11 03:40:02 FINE aw.PostTraumaticAgent|Quote for auction: Cheap Hotel 1 has HQW ? true, HQW:2
29/11 03:40:02 FINE aw.PostTraumaticAgent|Quote for auction: Cheap Hotel 3 has HQW ? true, HQW:3
29/11 03:40:02 FINE aw.PostTraumaticAgent|Quote for auction: Cheap Hotel 4 has HQW ? true, HQW:1
29/11 03:40:02 FINE aw.PostTraumaticAgent|Quote for auction: Good Hotel 2 has HQW ? true, HQW:3
29/11 03:40:02 FINE aw.PostTraumaticAgent|================ Shorten stay by 2 days for action: Good Hotel 3 for client: 0
29/11 03:40:02 FINE aw.PostTraumaticAgent|================ Shorten stay by 3 days for action: Good Hotel 3 for client: 0
29/11 03:40:02 FINE aw.PostTraumaticAgent|================ Shorten stay by 4 days for action: Good Hotel 3 for client: 0
29/11 03:40:02 FINE aw.PostTraumaticAgent|================ Failed to shorten stay for action: Good Hotel 3 for client: 0
29/11 03:40:02 FINE aw.PostTraumaticAgent|Quote for auction: Good Hotel 4 has HQW ? true, HQW:1
29/11 03:40:02 FINE aw.PostTraumaticAgent|!!!!!!!!!!!!!!!!!!!!!!! This is flight prices collected called !
29/11 03:40:02 FINE aw.PostTraumaticAgent|Predicted at Second: 53.0
29/11 03:40:02 FINE aw.PostTraumaticAgent|Predicted at Second: 53.0
29/11 03:40:02 FINE aw.PostTraumaticAgent|Predicted at Second: 53.0
29/11 03:40:02 FINE aw.PostTraumaticAgent|Predicted at Second: 53.0
29/11 03:40:02 FINE aw.PostTraumaticAgent|Predicted at Second: 53.0
29/11 03:40:02 FINE aw.PostTraumaticAgent|Predicted at Second: 53.0
29/11 03:40:02 FINE aw.PostTraumaticAgent|Predicted at Second: 52.0
29/11 03:40:02 FINE aw.PostTraumaticAgent|Predicted at Second: 13.0
29/11 03:40:02 FINE aw.PostTraumaticAgent|Auction 14 closed!
29/11 03:40:02 FINE aw.PostTraumaticAgent|Bid Updated: id=25286 auction=8 state=valid
29/11 03:40:02 FINE aw.PostTraumaticAgent|Bid Updated: id=25287 auction=10 state=valid
29/11 03:40:02 FINE aw.PostTraumaticAgent|Bid Updated: id=25288 auction=11 state=valid
29/11 03:40:02 FINE aw.PostTraumaticAgent|Bid Updated: id=25289 auction=13 state=valid
29/11 03:40:02 FINE aw.PostTraumaticAgent|Bid Updated: id=25290 auction=15 state=valid
29/11 03:40:12 FINE aw.PostTraumaticAgent|!!!!!!!!!!!!!!!!!!!!!!! This is flight prices collected called !
29/11 03:40:12 FINE aw.PostTraumaticAgent|Predicted at Second: 53.0
29/11 03:40:12 FINE aw.PostTraumaticAgent|Predicted at Second: 53.0
29/11 03:40:12 FINE aw.PostTraumaticAgent|Predicted at Second: 53.0
29/11 03:40:12 FINE aw.PostTraumaticAgent|Predicted at Second: 53.0
29/11 03:40:12 FINE aw.PostTraumaticAgent|Predicted at Second: 53.0
29/11 03:40:12 FINE aw.PostTraumaticAgent|Predicted at Second: 53.0
29/11 03:40:12 FINE aw.PostTraumaticAgent|Predicted at Second: 53.0
29/11 03:40:12 FINE aw.PostTraumaticAgent|Predicted at Second: 14.0
29/11 03:40:17 FINE aw.PostTraumaticAgent|Bid Updated: id=25286 auction=8 state=valid
29/11 03:40:28 FINE aw.PostTraumaticAgent|Bid Updated: id=25287 auction=10 state=valid
29/11 03:40:28 FINE aw.PostTraumaticAgent|Bid Updated: id=25288 auction=11 state=valid
29/11 03:40:28 FINE aw.PostTraumaticAgent|Bid Updated: id=25289 auction=13 state=valid
29/11 03:40:28 FINE aw.PostTraumaticAgent|Bid Updated: id=25290 auction=15 state=valid
29/11 03:40:28 FINE aw.PostTraumaticAgent|!!!!!!!!!!!!!!!!!!!!!!! This is flight prices collected called !
29/11 03:40:28 FINE aw.PostTraumaticAgent|Predicted at Second: 53.0
29/11 03:40:28 FINE aw.PostTraumaticAgent|Predicted at Second: 53.0
29/11 03:40:28 FINE aw.PostTraumaticAgent|Predicted at Second: 53.0
29/11 03:40:28 FINE aw.PostTraumaticAgent|Predicted at Second: 53.0
29/11 03:40:28 FINE aw.PostTraumaticAgent|Predicted at Second: 53.0
29/11 03:40:28 FINE aw.PostTraumaticAgent|Predicted at Second: 53.0
29/11 03:40:28 FINE aw.PostTraumaticAgent|Predicted at Second: 53.0
29/11 03:40:28 FINE aw.PostTraumaticAgent|Predicted at Second: 15.0
29/11 03:40:32 FINE aw.PostTraumaticAgent|!!!!!!!!!!!!!!!!!!!!!!! This is flight prices collected called !
29/11 03:40:32 FINE aw.PostTraumaticAgent|Predicted at Second: 53.0
29/11 03:40:32 FINE aw.PostTraumaticAgent|Predicted at Second: 53.0
29/11 03:40:32 FINE aw.PostTraumaticAgent|Predicted at Second: 53.0
29/11 03:40:32 FINE aw.PostTraumaticAgent|Predicted at Second: 53.0
29/11 03:40:32 FINE aw.PostTraumaticAgent|Predicted at Second: 53.0
29/11 03:40:32 FINE aw.PostTraumaticAgent|Predicted at Second: 53.0
29/11 03:40:32 FINE aw.PostTraumaticAgent|Predicted at Second: 53.0
29/11 03:40:32 FINE aw.PostTraumaticAgent|Predicted at Second: 53.0
29/11 03:40:42 FINE aw.PostTraumaticAgent|!!!!!!!!!!!!!!!!!!!!!!! This is flight prices collected called !
29/11 03:40:42 FINE aw.PostTraumaticAgent|Predicted at Second: 53.0
29/11 03:40:42 FINE aw.PostTraumaticAgent|Predicted at Second: 53.0
29/11 03:40:42 FINE aw.PostTraumaticAgent|Predicted at Second: 53.0
29/11 03:40:42 FINE aw.PostTraumaticAgent|Predicted at Second: 53.0
29/11 03:40:42 FINE aw.PostTraumaticAgent|Predicted at Second: 53.0
29/11 03:40:42 FINE aw.PostTraumaticAgent|Predicted at Second: 53.0
29/11 03:40:42 FINE aw.PostTraumaticAgent|Predicted at Second: 53.0
29/11 03:40:42 FINE aw.PostTraumaticAgent|Predicted at Second: 53.0
29/11 03:40:47 FINE aw.PostTraumaticAgent|Bid Updated: id=25286 auction=8 state=valid
29/11 03:40:47 FINE aw.PostTraumaticAgent|Bid Updated: id=25287 auction=10 state=valid
29/11 03:40:47 FINE aw.PostTraumaticAgent|Bid Updated: id=25288 auction=11 state=valid
29/11 03:40:47 FINE aw.PostTraumaticAgent|Bid Updated: id=25289 auction=13 state=valid
29/11 03:40:47 FINE aw.PostTraumaticAgent|Bid Updated: id=25290 auction=15 state=valid
29/11 03:40:52 FINE aw.PostTraumaticAgent|!!!!!!!!!!!!!!!!!!!!!!! This is flight prices collected called !
29/11 03:40:52 FINE aw.PostTraumaticAgent|Predicted at Second: 53.0
29/11 03:40:52 FINE aw.PostTraumaticAgent|Predicted at Second: 53.0
29/11 03:40:52 FINE aw.PostTraumaticAgent|Predicted at Second: 53.0
29/11 03:40:52 FINE aw.PostTraumaticAgent|Predicted at Second: 53.0
29/11 03:40:52 FINE aw.PostTraumaticAgent|Predicted at Second: 53.0
29/11 03:40:52 FINE aw.PostTraumaticAgent|Predicted at Second: 53.0
29/11 03:40:52 FINE aw.PostTraumaticAgent|Predicted at Second: 53.0
29/11 03:40:52 FINE aw.PostTraumaticAgent|Predicted at Second: 53.0
29/11 03:41:02 FINE aw.PostTraumaticAgent|Quote for auction: Cheap Hotel 1 has HQW ? true, HQW:2
29/11 03:41:02 FINE aw.PostTraumaticAgent|************ This is hotel price predictor for hotel auction:8
29/11 03:41:02 FINE aw.PostTraumaticAgent|************ Current time in minutes is: 3
29/11 03:41:02 FINE aw.PostTraumaticAgent|************ Current time in milli is: 181172
29/11 03:41:02 FINE aw.PostTraumaticAgent|************ Predicted Price is: 0
29/11 03:41:02 FINE aw.PostTraumaticAgent|************ Current Price is: 2.0
29/11 03:41:02 FINE aw.PostTraumaticAgent|************ Current Price is: 2
29/11 03:41:02 FINE aw.PostTraumaticAgent|************ Predicted for time (min  ): 4
29/11 03:41:02 FINE aw.PostTraumaticAgent|************ Predicted for time (milli): 240000
29/11 03:41:02 FINE aw.PostTraumaticAgent|Quote for auction: Cheap Hotel 3 has HQW ? true, HQW:3
29/11 03:41:02 FINE aw.PostTraumaticAgent|************ This is hotel price predictor for hotel auction:10
29/11 03:41:02 FINE aw.PostTraumaticAgent|************ Current time in minutes is: 3
29/11 03:41:02 FINE aw.PostTraumaticAgent|************ Current time in milli is: 181180
29/11 03:41:02 FINE aw.PostTraumaticAgent|************ Predicted Price is: 491
29/11 03:41:02 FINE aw.PostTraumaticAgent|************ Current Price is: 250.0
29/11 03:41:02 FINE aw.PostTraumaticAgent|************ Current Price is: 241
29/11 03:41:02 FINE aw.PostTraumaticAgent|************ Predicted for time (min  ): 4
29/11 03:41:02 FINE aw.PostTraumaticAgent|************ Predicted for time (milli): 240000
29/11 03:41:02 FINE aw.PostTraumaticAgent|Quote for auction: Cheap Hotel 4 has HQW ? true, HQW:1
29/11 03:41:02 FINE aw.PostTraumaticAgent|************ This is hotel price predictor for hotel auction:11
29/11 03:41:02 FINE aw.PostTraumaticAgent|************ Current time in minutes is: 3
29/11 03:41:02 FINE aw.PostTraumaticAgent|************ Current time in milli is: 181188
29/11 03:41:02 FINE aw.PostTraumaticAgent|************ Predicted Price is: 5
29/11 03:41:02 FINE aw.PostTraumaticAgent|************ Current Price is: 5.0
29/11 03:41:02 FINE aw.PostTraumaticAgent|************ Current Price is: 0
29/11 03:41:02 FINE aw.PostTraumaticAgent|************ Predicted for time (min  ): 4
29/11 03:41:02 FINE aw.PostTraumaticAgent|************ Predicted for time (milli): 240000
29/11 03:41:02 FINE aw.PostTraumaticAgent|Quote for auction: Good Hotel 2 has HQW ? true, HQW:3
29/11 03:41:02 FINE aw.PostTraumaticAgent|************ This is hotel price predictor for hotel auction:13
29/11 03:41:02 FINE aw.PostTraumaticAgent|************ Current time in minutes is: 3
29/11 03:41:02 FINE aw.PostTraumaticAgent|************ Current time in milli is: 181195
29/11 03:41:02 FINE aw.PostTraumaticAgent|************ Predicted Price is: 0
29/11 03:41:02 FINE aw.PostTraumaticAgent|************ Current Price is: 2.0
29/11 03:41:02 FINE aw.PostTraumaticAgent|************ Current Price is: 2
29/11 03:41:02 FINE aw.PostTraumaticAgent|************ Predicted for time (min  ): 4
29/11 03:41:02 FINE aw.PostTraumaticAgent|************ Predicted for time (milli): 240000
29/11 03:41:02 FINE aw.PostTraumaticAgent|Quote for auction: Good Hotel 4 has HQW ? true, HQW:1
29/11 03:41:02 FINE aw.PostTraumaticAgent|************ This is hotel price predictor for hotel auction:15
29/11 03:41:02 FINE aw.PostTraumaticAgent|************ Current time in minutes is: 3
29/11 03:41:02 FINE aw.PostTraumaticAgent|************ Current time in milli is: 181202
29/11 03:41:02 FINE aw.PostTraumaticAgent|************ Predicted Price is: 0
29/11 03:41:02 FINE aw.PostTraumaticAgent|************ Current Price is: 2.0
29/11 03:41:02 FINE aw.PostTraumaticAgent|************ Current Price is: 2
29/11 03:41:02 FINE aw.PostTraumaticAgent|************ Predicted for time (min  ): 4
29/11 03:41:02 FINE aw.PostTraumaticAgent|************ Predicted for time (milli): 240000
29/11 03:41:02 FINE aw.PostTraumaticAgent|!!!!!!!!!!!!!!!!!!!!!!! This is flight prices collected called !
29/11 03:41:02 FINE aw.PostTraumaticAgent|Predicted at Second: 53.0
29/11 03:41:02 FINE aw.PostTraumaticAgent|Predicted at Second: 53.0
29/11 03:41:02 FINE aw.PostTraumaticAgent|Predicted at Second: 53.0
29/11 03:41:02 FINE aw.PostTraumaticAgent|Predicted at Second: 53.0
29/11 03:41:02 FINE aw.PostTraumaticAgent|Predicted at Second: 53.0
29/11 03:41:02 FINE aw.PostTraumaticAgent|Predicted at Second: 53.0
29/11 03:41:02 FINE aw.PostTraumaticAgent|Predicted at Second: 53.0
29/11 03:41:02 FINE aw.PostTraumaticAgent|Predicted at Second: 53.0
29/11 03:41:02 WARNING aw.PostTraumaticAgent|Bid Rejected: 25389, Reason: 21 (bid not improved)
29/11 03:41:02 FINE aw.PostTraumaticAgent|Auction 12 closed!
29/11 03:41:02 FINE aw.PostTraumaticAgent|Bid Updated: id=25387 auction=8 state=valid
29/11 03:41:02 FINE aw.PostTraumaticAgent|Bid Updated: id=25388 auction=10 state=valid
29/11 03:41:02 FINE aw.PostTraumaticAgent|Bid Updated: id=25390 auction=13 state=valid
29/11 03:41:02 FINE aw.PostTraumaticAgent|Bid Updated: id=25391 auction=15 state=valid
29/11 03:41:12 FINE aw.PostTraumaticAgent|!!!!!!!!!!!!!!!!!!!!!!! This is flight prices collected called !
29/11 03:41:12 FINE aw.PostTraumaticAgent|Predicted at Second: 53.0
29/11 03:41:12 FINE aw.PostTraumaticAgent|Predicted at Second: 53.0
29/11 03:41:12 FINE aw.PostTraumaticAgent|Predicted at Second: 53.0
29/11 03:41:12 FINE aw.PostTraumaticAgent|Predicted at Second: 53.0
29/11 03:41:12 FINE aw.PostTraumaticAgent|Predicted at Second: 53.0
29/11 03:41:12 FINE aw.PostTraumaticAgent|Predicted at Second: 53.0
29/11 03:41:12 FINE aw.PostTraumaticAgent|Predicted at Second: 53.0
29/11 03:41:12 FINE aw.PostTraumaticAgent|Predicted at Second: 53.0
29/11 03:41:17 FINE aw.PostTraumaticAgent|Bid Updated: id=25387 auction=8 state=valid
29/11 03:41:17 FINE aw.PostTraumaticAgent|Bid Updated: id=25388 auction=10 state=valid
29/11 03:41:17 FINE aw.PostTraumaticAgent|Bid Updated: id=25288 auction=11 state=valid
29/11 03:41:17 FINE aw.PostTraumaticAgent|Bid Updated: id=25390 auction=13 state=valid
29/11 03:41:17 FINE aw.PostTraumaticAgent|Bid Updated: id=25391 auction=15 state=valid
29/11 03:41:22 FINE aw.PostTraumaticAgent|!!!!!!!!!!!!!!!!!!!!!!! This is flight prices collected called !
29/11 03:41:22 FINE aw.PostTraumaticAgent|Predicted at Second: 53.0
29/11 03:41:22 FINE aw.PostTraumaticAgent|Predicted at Second: 53.0
29/11 03:41:22 FINE aw.PostTraumaticAgent|Predicted at Second: 53.0
29/11 03:41:22 FINE aw.PostTraumaticAgent|Predicted at Second: 53.0
29/11 03:41:22 FINE aw.PostTraumaticAgent|Predicted at Second: 53.0
29/11 03:41:22 FINE aw.PostTraumaticAgent|Predicted at Second: 53.0
29/11 03:41:22 FINE aw.PostTraumaticAgent|Predicted at Second: 53.0
29/11 03:41:22 FINE aw.PostTraumaticAgent|Predicted at Second: 53.0
29/11 03:41:32 FINE aw.PostTraumaticAgent|!!!!!!!!!!!!!!!!!!!!!!! This is flight prices collected called !
29/11 03:41:32 FINE aw.PostTraumaticAgent|Predicted at Second: 53.0
29/11 03:41:32 FINE aw.PostTraumaticAgent|Predicted at Second: 53.0
29/11 03:41:32 FINE aw.PostTraumaticAgent|Predicted at Second: 53.0
29/11 03:41:32 FINE aw.PostTraumaticAgent|Predicted at Second: 53.0
29/11 03:41:32 FINE aw.PostTraumaticAgent|Predicted at Second: 53.0
29/11 03:41:32 FINE aw.PostTraumaticAgent|Predicted at Second: 53.0
29/11 03:41:32 FINE aw.PostTraumaticAgent|Predicted at Second: 53.0
29/11 03:41:32 FINE aw.PostTraumaticAgent|Predicted at Second: 53.0
29/11 03:41:42 FINE aw.PostTraumaticAgent|!!!!!!!!!!!!!!!!!!!!!!! This is flight prices collected called !
29/11 03:41:42 FINE aw.PostTraumaticAgent|Predicted at Second: 53.0
29/11 03:41:42 FINE aw.PostTraumaticAgent|Predicted at Second: 53.0
29/11 03:41:42 FINE aw.PostTraumaticAgent|Predicted at Second: 53.0
29/11 03:41:42 FINE aw.PostTraumaticAgent|Predicted at Second: 53.0
29/11 03:41:42 FINE aw.PostTraumaticAgent|Predicted at Second: 53.0
29/11 03:41:42 FINE aw.PostTraumaticAgent|Predicted at Second: 53.0
29/11 03:41:42 FINE aw.PostTraumaticAgent|Predicted at Second: 53.0
29/11 03:41:42 FINE aw.PostTraumaticAgent|Predicted at Second: 53.0
29/11 03:41:47 FINE aw.PostTraumaticAgent|Bid Updated: id=25387 auction=8 state=valid
29/11 03:41:47 FINE aw.PostTraumaticAgent|Bid Updated: id=25388 auction=10 state=valid
29/11 03:41:47 FINE aw.PostTraumaticAgent|Bid Updated: id=25288 auction=11 state=valid
29/11 03:41:47 FINE aw.PostTraumaticAgent|Bid Updated: id=25390 auction=13 state=valid
29/11 03:41:47 FINE aw.PostTraumaticAgent|Bid Updated: id=25391 auction=15 state=valid
29/11 03:41:52 FINE aw.PostTraumaticAgent|!!!!!!!!!!!!!!!!!!!!!!! This is flight prices collected called !
29/11 03:41:52 FINE aw.PostTraumaticAgent|Predicted at Second: 53.0
29/11 03:41:52 FINE aw.PostTraumaticAgent|Predicted at Second: 53.0
29/11 03:41:52 FINE aw.PostTraumaticAgent|Predicted at Second: 53.0
29/11 03:41:52 FINE aw.PostTraumaticAgent|Predicted at Second: 53.0
29/11 03:41:52 FINE aw.PostTraumaticAgent|Predicted at Second: 53.0
29/11 03:41:52 FINE aw.PostTraumaticAgent|Predicted at Second: 53.0
29/11 03:41:52 FINE aw.PostTraumaticAgent|Predicted at Second: 53.0
29/11 03:41:52 FINE aw.PostTraumaticAgent|Predicted at Second: 53.0
29/11 03:42:02 FINE aw.PostTraumaticAgent|================ Shorten stay by 2 days for action: Cheap Hotel 1 for client: 5
29/11 03:42:02 FINE aw.PostTraumaticAgent|Quote for auction: Cheap Hotel 3 has HQW ? false, HQW:3
29/11 03:42:02 FINE aw.PostTraumaticAgent|************ This is hotel price predictor for hotel auction:10
29/11 03:42:02 FINE aw.PostTraumaticAgent|************ Current time in minutes is: 4
29/11 03:42:02 FINE aw.PostTraumaticAgent|************ Current time in milli is: 241199
29/11 03:42:02 FINE aw.PostTraumaticAgent|************ Predicted Price is: 416
29/11 03:42:02 FINE aw.PostTraumaticAgent|************ Current Price is: 475.0
29/11 03:42:02 FINE aw.PostTraumaticAgent|************ Current Price is: 59
29/11 03:42:02 FINE aw.PostTraumaticAgent|************ Predicted for time (min  ): 5
29/11 03:42:02 FINE aw.PostTraumaticAgent|************ Predicted for time (milli): 300000
29/11 03:42:02 FINE aw.PostTraumaticAgent|================ Shorten stay by 3 days for action: Cheap Hotel 1 for client: 5
29/11 03:42:02 FINE aw.PostTraumaticAgent|Quote for auction: Cheap Hotel 3 has HQW ? false, HQW:3
29/11 03:42:02 FINE aw.PostTraumaticAgent|Quote for auction: Cheap Hotel 4 has HQW ? true, HQW:1
29/11 03:42:02 FINE aw.PostTraumaticAgent|************ This is hotel price predictor for hotel auction:11
29/11 03:42:02 FINE aw.PostTraumaticAgent|************ Current time in minutes is: 4
29/11 03:42:02 FINE aw.PostTraumaticAgent|************ Current time in milli is: 241208
29/11 03:42:02 FINE aw.PostTraumaticAgent|************ Predicted Price is: 8
29/11 03:42:02 FINE aw.PostTraumaticAgent|************ Current Price is: 5.0
29/11 03:42:02 FINE aw.PostTraumaticAgent|************ Current Price is: 3
29/11 03:42:02 FINE aw.PostTraumaticAgent|************ Predicted for time (min  ): 5
29/11 03:42:02 FINE aw.PostTraumaticAgent|************ Predicted for time (milli): 300000
29/11 03:42:02 FINE aw.PostTraumaticAgent|Quote for auction: Good Hotel 2 has HQW ? true, HQW:3
29/11 03:42:02 FINE aw.PostTraumaticAgent|************ This is hotel price predictor for hotel auction:13
29/11 03:42:02 FINE aw.PostTraumaticAgent|************ Current time in minutes is: 4
29/11 03:42:02 FINE aw.PostTraumaticAgent|************ Current time in milli is: 241217
29/11 03:42:02 FINE aw.PostTraumaticAgent|************ Predicted Price is: 0
29/11 03:42:02 FINE aw.PostTraumaticAgent|************ Current Price is: 2.0
29/11 03:42:02 FINE aw.PostTraumaticAgent|************ Current Price is: 2
29/11 03:42:02 FINE aw.PostTraumaticAgent|************ Predicted for time (min  ): 5
29/11 03:42:02 FINE aw.PostTraumaticAgent|************ Predicted for time (milli): 300000
29/11 03:42:02 FINE aw.PostTraumaticAgent|Quote for auction: Good Hotel 4 has HQW ? true, HQW:1
29/11 03:42:02 FINE aw.PostTraumaticAgent|************ This is hotel price predictor for hotel auction:15
29/11 03:42:02 FINE aw.PostTraumaticAgent|************ Current time in minutes is: 4
29/11 03:42:02 FINE aw.PostTraumaticAgent|************ Current time in milli is: 241225
29/11 03:42:02 FINE aw.PostTraumaticAgent|************ Predicted Price is: 0
29/11 03:42:02 FINE aw.PostTraumaticAgent|************ Current Price is: 2.0
29/11 03:42:02 FINE aw.PostTraumaticAgent|************ Current Price is: 2
29/11 03:42:02 FINE aw.PostTraumaticAgent|************ Predicted for time (min  ): 5
29/11 03:42:02 FINE aw.PostTraumaticAgent|************ Predicted for time (milli): 300000
29/11 03:42:02 FINE aw.PostTraumaticAgent|!!!!!!!!!!!!!!!!!!!!!!! This is flight prices collected called !
29/11 03:42:02 FINE aw.PostTraumaticAgent|Predicted at Second: 53.0
29/11 03:42:02 FINE aw.PostTraumaticAgent|Predicted at Second: 53.0
29/11 03:42:02 FINE aw.PostTraumaticAgent|Predicted at Second: 53.0
29/11 03:42:02 FINE aw.PostTraumaticAgent|Predicted at Second: 53.0
29/11 03:42:02 FINE aw.PostTraumaticAgent|Predicted at Second: 53.0
29/11 03:42:02 FINE aw.PostTraumaticAgent|Predicted at Second: 53.0
29/11 03:42:02 FINE aw.PostTraumaticAgent|Predicted at Second: 53.0
29/11 03:42:02 FINE aw.PostTraumaticAgent|Predicted at Second: 53.0
29/11 03:42:02 FINE aw.PostTraumaticAgent|Bid Updated: id=25482 auction=10 state=valid
29/11 03:42:02 FINE aw.PostTraumaticAgent|Auction 8 closed!
29/11 03:42:02 FINE aw.PostTraumaticAgent|Bid Updated: id=25483 auction=11 state=valid
29/11 03:42:02 FINE aw.PostTraumaticAgent|Bid Updated: id=25484 auction=13 state=valid
29/11 03:42:02 FINE aw.PostTraumaticAgent|Bid Updated: id=25485 auction=15 state=valid
29/11 03:42:12 FINE aw.PostTraumaticAgent|!!!!!!!!!!!!!!!!!!!!!!! This is flight prices collected called !
29/11 03:42:12 FINE aw.PostTraumaticAgent|Predicted at Second: 53.0
29/11 03:42:12 FINE aw.PostTraumaticAgent|Predicted at Second: 53.0
29/11 03:42:12 FINE aw.PostTraumaticAgent|Predicted at Second: 53.0
29/11 03:42:12 FINE aw.PostTraumaticAgent|Predicted at Second: 53.0
29/11 03:42:12 FINE aw.PostTraumaticAgent|Predicted at Second: 53.0
29/11 03:42:12 FINE aw.PostTraumaticAgent|Predicted at Second: 53.0
29/11 03:42:12 FINE aw.PostTraumaticAgent|Predicted at Second: 53.0
29/11 03:42:12 FINE aw.PostTraumaticAgent|Predicted at Second: 53.0
29/11 03:42:17 FINE aw.PostTraumaticAgent|Bid Updated: id=25482 auction=10 state=valid
29/11 03:42:17 FINE aw.PostTraumaticAgent|Bid Updated: id=25483 auction=11 state=valid
29/11 03:42:17 FINE aw.PostTraumaticAgent|Bid Updated: id=25484 auction=13 state=valid
29/11 03:42:17 FINE aw.PostTraumaticAgent|Bid Updated: id=25485 auction=15 state=valid
29/11 03:42:22 FINE aw.PostTraumaticAgent|!!!!!!!!!!!!!!!!!!!!!!! This is flight prices collected called !
29/11 03:42:22 FINE aw.PostTraumaticAgent|Predicted at Second: 53.0
29/11 03:42:22 FINE aw.PostTraumaticAgent|Predicted at Second: 53.0
29/11 03:42:22 FINE aw.PostTraumaticAgent|Predicted at Second: 53.0
29/11 03:42:22 FINE aw.PostTraumaticAgent|Predicted at Second: 53.0
29/11 03:42:22 FINE aw.PostTraumaticAgent|Predicted at Second: 53.0
29/11 03:42:22 FINE aw.PostTraumaticAgent|Predicted at Second: 53.0
29/11 03:42:22 FINE aw.PostTraumaticAgent|Predicted at Second: 53.0
29/11 03:42:22 FINE aw.PostTraumaticAgent|Predicted at Second: 53.0
29/11 03:42:32 FINE aw.PostTraumaticAgent|!!!!!!!!!!!!!!!!!!!!!!! This is flight prices collected called !
29/11 03:42:32 FINE aw.PostTraumaticAgent|Predicted at Second: 53.0
29/11 03:42:32 FINE aw.PostTraumaticAgent|Predicted at Second: 53.0
29/11 03:42:32 FINE aw.PostTraumaticAgent|Predicted at Second: 53.0
29/11 03:42:32 FINE aw.PostTraumaticAgent|Predicted at Second: 53.0
29/11 03:42:32 FINE aw.PostTraumaticAgent|Predicted at Second: 53.0
29/11 03:42:32 FINE aw.PostTraumaticAgent|Predicted at Second: 53.0
29/11 03:42:32 FINE aw.PostTraumaticAgent|Predicted at Second: 53.0
29/11 03:42:32 FINE aw.PostTraumaticAgent|Predicted at Second: 53.0
29/11 03:42:42 FINE aw.PostTraumaticAgent|!!!!!!!!!!!!!!!!!!!!!!! This is flight prices collected called !
29/11 03:42:42 FINE aw.PostTraumaticAgent|Predicted at Second: 53.0
29/11 03:42:42 FINE aw.PostTraumaticAgent|Predicted at Second: 53.0
29/11 03:42:42 FINE aw.PostTraumaticAgent|Predicted at Second: 53.0
29/11 03:42:42 FINE aw.PostTraumaticAgent|Predicted at Second: 53.0
29/11 03:42:42 FINE aw.PostTraumaticAgent|Predicted at Second: 53.0
29/11 03:42:42 FINE aw.PostTraumaticAgent|Predicted at Second: 53.0
29/11 03:42:42 FINE aw.PostTraumaticAgent|Predicted at Second: 53.0
29/11 03:42:42 FINE aw.PostTraumaticAgent|Predicted at Second: 53.0
29/11 03:42:47 FINE aw.PostTraumaticAgent|Bid Updated: id=25482 auction=10 state=valid
29/11 03:42:47 FINE aw.PostTraumaticAgent|Bid Updated: id=25483 auction=11 state=valid
29/11 03:42:47 FINE aw.PostTraumaticAgent|Bid Updated: id=25484 auction=13 state=valid
29/11 03:42:47 FINE aw.PostTraumaticAgent|Bid Updated: id=25485 auction=15 state=valid
29/11 03:42:52 FINE aw.PostTraumaticAgent|!!!!!!!!!!!!!!!!!!!!!!! This is flight prices collected called !
29/11 03:42:52 FINE aw.PostTraumaticAgent|Predicted at Second: 53.0
29/11 03:42:52 FINE aw.PostTraumaticAgent|Predicted at Second: 53.0
29/11 03:42:52 FINE aw.PostTraumaticAgent|Predicted at Second: 53.0
29/11 03:42:52 FINE aw.PostTraumaticAgent|Predicted at Second: 53.0
29/11 03:42:52 FINE aw.PostTraumaticAgent|Predicted at Second: 53.0
29/11 03:42:52 FINE aw.PostTraumaticAgent|Predicted at Second: 53.0
29/11 03:42:52 FINE aw.PostTraumaticAgent|Predicted at Second: 53.0
29/11 03:42:52 FINE aw.PostTraumaticAgent|Predicted at Second: 53.0
29/11 03:43:02 FINE aw.PostTraumaticAgent|Quote for auction: Cheap Hotel 4 has HQW ? false, HQW:1
29/11 03:43:02 FINE aw.PostTraumaticAgent|************ This is hotel price predictor for hotel auction:11
29/11 03:43:02 FINE aw.PostTraumaticAgent|************ Current time in minutes is: 5
29/11 03:43:02 FINE aw.PostTraumaticAgent|************ Current time in milli is: 301230
29/11 03:43:02 FINE aw.PostTraumaticAgent|************ Predicted Price is: 8
29/11 03:43:02 FINE aw.PostTraumaticAgent|************ Current Price is: 8.0
29/11 03:43:02 FINE aw.PostTraumaticAgent|************ Current Price is: 0
29/11 03:43:02 FINE aw.PostTraumaticAgent|************ Predicted for time (min  ): 6
29/11 03:43:02 FINE aw.PostTraumaticAgent|************ Predicted for time (milli): 360000
29/11 03:43:02 FINE aw.PostTraumaticAgent|================ Shorten stay by 2 days for action: Cheap Hotel 3 for client: 3
29/11 03:43:02 FINE aw.PostTraumaticAgent|Quote for auction: Cheap Hotel 4 has HQW ? false, HQW:1
29/11 03:43:02 FINE aw.PostTraumaticAgent|Quote for auction: Good Hotel 2 has HQW ? true, HQW:3
29/11 03:43:02 FINE aw.PostTraumaticAgent|************ This is hotel price predictor for hotel auction:13
29/11 03:43:02 FINE aw.PostTraumaticAgent|************ Current time in minutes is: 5
29/11 03:43:02 FINE aw.PostTraumaticAgent|************ Current time in milli is: 301238
29/11 03:43:02 FINE aw.PostTraumaticAgent|************ Predicted Price is: 0
29/11 03:43:02 FINE aw.PostTraumaticAgent|************ Current Price is: 2.0
29/11 03:43:02 FINE aw.PostTraumaticAgent|************ Current Price is: 2
29/11 03:43:02 FINE aw.PostTraumaticAgent|************ Predicted for time (min  ): 6
29/11 03:43:02 FINE aw.PostTraumaticAgent|************ Predicted for time (milli): 360000
29/11 03:43:02 FINE aw.PostTraumaticAgent|Quote for auction: Good Hotel 4 has HQW ? true, HQW:1
29/11 03:43:02 FINE aw.PostTraumaticAgent|************ This is hotel price predictor for hotel auction:15
29/11 03:43:02 FINE aw.PostTraumaticAgent|************ Current time in minutes is: 5
29/11 03:43:02 FINE aw.PostTraumaticAgent|************ Current time in milli is: 301246
29/11 03:43:02 FINE aw.PostTraumaticAgent|************ Predicted Price is: 0
29/11 03:43:02 FINE aw.PostTraumaticAgent|************ Current Price is: 2.0
29/11 03:43:02 FINE aw.PostTraumaticAgent|************ Current Price is: 2
29/11 03:43:02 FINE aw.PostTraumaticAgent|************ Predicted for time (min  ): 6
29/11 03:43:02 FINE aw.PostTraumaticAgent|************ Predicted for time (milli): 360000
29/11 03:43:02 FINE aw.PostTraumaticAgent|!!!!!!!!!!!!!!!!!!!!!!! This is flight prices collected called !
29/11 03:43:02 FINE aw.PostTraumaticAgent|Predicted at Second: 53.0
29/11 03:43:02 FINE aw.PostTraumaticAgent|Predicted at Second: 53.0
29/11 03:43:02 FINE aw.PostTraumaticAgent|Predicted at Second: 53.0
29/11 03:43:02 FINE aw.PostTraumaticAgent|Predicted at Second: 53.0
29/11 03:43:02 FINE aw.PostTraumaticAgent|Predicted at Second: 53.0
29/11 03:43:02 FINE aw.PostTraumaticAgent|Predicted at Second: 53.0
29/11 03:43:02 FINE aw.PostTraumaticAgent|Predicted at Second: 53.0
29/11 03:43:02 FINE aw.PostTraumaticAgent|Predicted at Second: 53.0
29/11 03:43:02 WARNING aw.PostTraumaticAgent|Bid Rejected: 25579, Reason: 21 (bid not improved)
29/11 03:43:02 FINE aw.PostTraumaticAgent|Auction 10 closed!
29/11 03:43:02 FINE aw.PostTraumaticAgent|Bid Updated: id=25580 auction=13 state=valid
29/11 03:43:02 FINE aw.PostTraumaticAgent|Bid Updated: id=25581 auction=15 state=valid
29/11 03:43:12 FINE aw.PostTraumaticAgent|!!!!!!!!!!!!!!!!!!!!!!! This is flight prices collected called !
29/11 03:43:12 FINE aw.PostTraumaticAgent|Predicted at Second: 53.0
29/11 03:43:12 FINE aw.PostTraumaticAgent|Predicted at Second: 53.0
29/11 03:43:12 FINE aw.PostTraumaticAgent|Predicted at Second: 53.0
29/11 03:43:12 FINE aw.PostTraumaticAgent|Predicted at Second: 53.0
29/11 03:43:12 FINE aw.PostTraumaticAgent|Predicted at Second: 53.0
29/11 03:43:12 FINE aw.PostTraumaticAgent|Predicted at Second: 53.0
29/11 03:43:12 FINE aw.PostTraumaticAgent|Predicted at Second: 53.0
29/11 03:43:12 FINE aw.PostTraumaticAgent|Predicted at Second: 53.0
29/11 03:43:17 FINE aw.PostTraumaticAgent|Bid Updated: id=25483 auction=11 state=valid
29/11 03:43:17 FINE aw.PostTraumaticAgent|Bid Updated: id=25580 auction=13 state=valid
29/11 03:43:17 FINE aw.PostTraumaticAgent|Bid Updated: id=25581 auction=15 state=valid
29/11 03:43:22 FINE aw.PostTraumaticAgent|!!!!!!!!!!!!!!!!!!!!!!! This is flight prices collected called !
29/11 03:43:22 FINE aw.PostTraumaticAgent|Predicted at Second: 53.0
29/11 03:43:22 FINE aw.PostTraumaticAgent|Predicted at Second: 53.0
29/11 03:43:22 FINE aw.PostTraumaticAgent|Predicted at Second: 53.0
29/11 03:43:22 FINE aw.PostTraumaticAgent|Predicted at Second: 53.0
29/11 03:43:22 FINE aw.PostTraumaticAgent|Predicted at Second: 53.0
29/11 03:43:22 FINE aw.PostTraumaticAgent|Predicted at Second: 53.0
29/11 03:43:22 FINE aw.PostTraumaticAgent|Predicted at Second: 53.0
29/11 03:43:22 FINE aw.PostTraumaticAgent|Predicted at Second: 53.0
29/11 03:43:32 FINE aw.PostTraumaticAgent|!!!!!!!!!!!!!!!!!!!!!!! This is flight prices collected called !
29/11 03:43:32 FINE aw.PostTraumaticAgent|Predicted at Second: 53.0
29/11 03:43:32 FINE aw.PostTraumaticAgent|Predicted at Second: 53.0
29/11 03:43:32 FINE aw.PostTraumaticAgent|Predicted at Second: 53.0
29/11 03:43:32 FINE aw.PostTraumaticAgent|Predicted at Second: 53.0
29/11 03:43:32 FINE aw.PostTraumaticAgent|Predicted at Second: 53.0
29/11 03:43:32 FINE aw.PostTraumaticAgent|Predicted at Second: 53.0
29/11 03:43:32 FINE aw.PostTraumaticAgent|Predicted at Second: 53.0
29/11 03:43:32 FINE aw.PostTraumaticAgent|Predicted at Second: 53.0
29/11 03:43:42 FINE aw.PostTraumaticAgent|!!!!!!!!!!!!!!!!!!!!!!! This is flight prices collected called !
29/11 03:43:42 FINE aw.PostTraumaticAgent|Predicted at Second: 53.0
29/11 03:43:42 FINE aw.PostTraumaticAgent|Predicted at Second: 53.0
29/11 03:43:42 FINE aw.PostTraumaticAgent|Predicted at Second: 53.0
29/11 03:43:42 FINE aw.PostTraumaticAgent|Predicted at Second: 53.0
29/11 03:43:42 FINE aw.PostTraumaticAgent|Predicted at Second: 53.0
29/11 03:43:42 FINE aw.PostTraumaticAgent|Predicted at Second: 53.0
29/11 03:43:42 FINE aw.PostTraumaticAgent|Predicted at Second: 53.0
29/11 03:43:42 FINE aw.PostTraumaticAgent|Predicted at Second: 53.0
29/11 03:43:47 FINE aw.PostTraumaticAgent|Bid Updated: id=25483 auction=11 state=valid
29/11 03:43:47 FINE aw.PostTraumaticAgent|Bid Updated: id=25580 auction=13 state=valid
29/11 03:43:47 FINE aw.PostTraumaticAgent|Bid Updated: id=25581 auction=15 state=valid
29/11 03:43:52 FINE aw.PostTraumaticAgent|!!!!!!!!!!!!!!!!!!!!!!! This is flight prices collected called !
29/11 03:43:52 FINE aw.PostTraumaticAgent|Predicted at Second: 53.0
29/11 03:43:52 FINE aw.PostTraumaticAgent|Predicted at Second: 53.0
29/11 03:43:52 FINE aw.PostTraumaticAgent|Predicted at Second: 53.0
29/11 03:43:52 FINE aw.PostTraumaticAgent|Predicted at Second: 53.0
29/11 03:43:52 FINE aw.PostTraumaticAgent|Predicted at Second: 53.0
29/11 03:43:52 FINE aw.PostTraumaticAgent|Predicted at Second: 53.0
29/11 03:43:52 FINE aw.PostTraumaticAgent|Predicted at Second: 53.0
29/11 03:43:52 FINE aw.PostTraumaticAgent|Predicted at Second: 53.0
29/11 03:44:02 FINE aw.PostTraumaticAgent|Quote for auction: Cheap Hotel 4 has HQW ? true, HQW:1
29/11 03:44:02 FINE aw.PostTraumaticAgent|************ This is hotel price predictor for hotel auction:11
29/11 03:44:02 FINE aw.PostTraumaticAgent|************ Current time in minutes is: 6
29/11 03:44:02 FINE aw.PostTraumaticAgent|************ Current time in milli is: 361323
29/11 03:44:02 FINE aw.PostTraumaticAgent|************ Predicted Price is: 10
29/11 03:44:02 FINE aw.PostTraumaticAgent|************ Current Price is: 5.0
29/11 03:44:02 FINE aw.PostTraumaticAgent|************ Current Price is: 5
29/11 03:44:02 FINE aw.PostTraumaticAgent|************ Predicted for time (min  ): 7
29/11 03:44:02 FINE aw.PostTraumaticAgent|************ Predicted for time (milli): 420000
29/11 03:44:02 FINE aw.PostTraumaticAgent|Quote for auction: Good Hotel 2 has HQW ? true, HQW:3
29/11 03:44:02 FINE aw.PostTraumaticAgent|************ This is hotel price predictor for hotel auction:13
29/11 03:44:02 FINE aw.PostTraumaticAgent|************ Current time in minutes is: 6
29/11 03:44:02 FINE aw.PostTraumaticAgent|************ Current time in milli is: 361327
29/11 03:44:02 FINE aw.PostTraumaticAgent|************ Predicted Price is: 0
29/11 03:44:02 FINE aw.PostTraumaticAgent|************ Current Price is: 2.0
29/11 03:44:02 FINE aw.PostTraumaticAgent|************ Current Price is: 2
29/11 03:44:02 FINE aw.PostTraumaticAgent|************ Predicted for time (min  ): 7
29/11 03:44:02 FINE aw.PostTraumaticAgent|************ Predicted for time (milli): 420000
29/11 03:44:02 FINE aw.PostTraumaticAgent|================ Shorten stay by 2 days for action: Good Hotel 4 for client: 0
29/11 03:44:02 FINE aw.PostTraumaticAgent|================ Shorten stay by 3 days for action: Good Hotel 4 for client: 0
29/11 03:44:02 FINE aw.PostTraumaticAgent|================ Shorten stay by 4 days for action: Good Hotel 4 for client: 0
29/11 03:44:02 FINE aw.PostTraumaticAgent|================ Failed to shorten stay for action: Good Hotel 4 for client: 0
29/11 03:44:02 FINE aw.PostTraumaticAgent|!!!!!!!!!!!!!!!!!!!!!!! This is flight prices collected called !
29/11 03:44:02 FINE aw.PostTraumaticAgent|Predicted at Second: 53.0
29/11 03:44:02 FINE aw.PostTraumaticAgent|Predicted at Second: 53.0
29/11 03:44:02 FINE aw.PostTraumaticAgent|Predicted at Second: 53.0
29/11 03:44:02 FINE aw.PostTraumaticAgent|Predicted at Second: 53.0
29/11 03:44:02 FINE aw.PostTraumaticAgent|Predicted at Second: 53.0
29/11 03:44:02 FINE aw.PostTraumaticAgent|Predicted at Second: 53.0
29/11 03:44:02 FINE aw.PostTraumaticAgent|Predicted at Second: 53.0
29/11 03:44:02 FINE aw.PostTraumaticAgent|Predicted at Second: 53.0
29/11 03:44:02 FINE aw.PostTraumaticAgent|Bid Updated: id=25661 auction=11 state=valid
29/11 03:44:02 FINE aw.PostTraumaticAgent|Bid Updated: id=25662 auction=13 state=valid
29/11 03:44:02 FINE aw.PostTraumaticAgent|Auction 15 closed!
29/11 03:44:12 FINE aw.PostTraumaticAgent|!!!!!!!!!!!!!!!!!!!!!!! This is flight prices collected called !
29/11 03:44:12 FINE aw.PostTraumaticAgent|Predicted at Second: 53.0
29/11 03:44:12 FINE aw.PostTraumaticAgent|Predicted at Second: 53.0
29/11 03:44:12 FINE aw.PostTraumaticAgent|Predicted at Second: 53.0
29/11 03:44:12 FINE aw.PostTraumaticAgent|Predicted at Second: 53.0
29/11 03:44:12 FINE aw.PostTraumaticAgent|Predicted at Second: 53.0
29/11 03:44:12 FINE aw.PostTraumaticAgent|Predicted at Second: 53.0
29/11 03:44:12 FINE aw.PostTraumaticAgent|Predicted at Second: 53.0
29/11 03:44:12 FINE aw.PostTraumaticAgent|Predicted at Second: 53.0
29/11 03:44:17 FINE aw.PostTraumaticAgent|Bid Updated: id=25661 auction=11 state=valid
29/11 03:44:17 FINE aw.PostTraumaticAgent|Bid Updated: id=25662 auction=13 state=valid
29/11 03:44:22 FINE aw.PostTraumaticAgent|!!!!!!!!!!!!!!!!!!!!!!! This is flight prices collected called !
29/11 03:44:22 FINE aw.PostTraumaticAgent|Predicted at Second: 53.0
29/11 03:44:22 FINE aw.PostTraumaticAgent|Predicted at Second: 53.0
29/11 03:44:22 FINE aw.PostTraumaticAgent|Predicted at Second: 53.0
29/11 03:44:22 FINE aw.PostTraumaticAgent|Predicted at Second: 53.0
29/11 03:44:22 FINE aw.PostTraumaticAgent|Predicted at Second: 53.0
29/11 03:44:22 FINE aw.PostTraumaticAgent|Predicted at Second: 53.0
29/11 03:44:22 FINE aw.PostTraumaticAgent|Predicted at Second: 53.0
29/11 03:44:22 FINE aw.PostTraumaticAgent|Predicted at Second: 53.0
29/11 03:44:32 FINE aw.PostTraumaticAgent|!!!!!!!!!!!!!!!!!!!!!!! This is flight prices collected called !
29/11 03:44:32 FINE aw.PostTraumaticAgent|Predicted at Second: 53.0
29/11 03:44:32 FINE aw.PostTraumaticAgent|Predicted at Second: 53.0
29/11 03:44:32 FINE aw.PostTraumaticAgent|Predicted at Second: 53.0
29/11 03:44:32 FINE aw.PostTraumaticAgent|Predicted at Second: 53.0
29/11 03:44:32 FINE aw.PostTraumaticAgent|Predicted at Second: 53.0
29/11 03:44:32 FINE aw.PostTraumaticAgent|Predicted at Second: 53.0
29/11 03:44:32 FINE aw.PostTraumaticAgent|Predicted at Second: 53.0
29/11 03:44:32 FINE aw.PostTraumaticAgent|Predicted at Second: 53.0
29/11 03:44:42 FINE aw.PostTraumaticAgent|!!!!!!!!!!!!!!!!!!!!!!! This is flight prices collected called !
29/11 03:44:42 FINE aw.PostTraumaticAgent|Predicted at Second: 53.0
29/11 03:44:42 FINE aw.PostTraumaticAgent|Predicted at Second: 53.0
29/11 03:44:42 FINE aw.PostTraumaticAgent|Predicted at Second: 53.0
29/11 03:44:42 FINE aw.PostTraumaticAgent|Predicted at Second: 53.0
29/11 03:44:42 FINE aw.PostTraumaticAgent|Predicted at Second: 53.0
29/11 03:44:42 FINE aw.PostTraumaticAgent|Predicted at Second: 53.0
29/11 03:44:42 FINE aw.PostTraumaticAgent|Predicted at Second: 53.0
29/11 03:44:42 FINE aw.PostTraumaticAgent|Predicted at Second: 53.0
29/11 03:44:47 FINE aw.PostTraumaticAgent|Bid Updated: id=25661 auction=11 state=valid
29/11 03:44:47 FINE aw.PostTraumaticAgent|Bid Updated: id=25662 auction=13 state=valid
29/11 03:44:52 FINE aw.PostTraumaticAgent|!!!!!!!!!!!!!!!!!!!!!!! This is flight prices collected called !
29/11 03:44:52 FINE aw.PostTraumaticAgent|Predicted at Second: 42.0
29/11 03:44:52 FINE aw.PostTraumaticAgent|Predicted at Second: 42.0
29/11 03:44:52 FINE aw.PostTraumaticAgent|Predicted at Second: 42.0
29/11 03:44:52 FINE aw.PostTraumaticAgent|Predicted at Second: 42.0
29/11 03:44:52 FINE aw.PostTraumaticAgent|Predicted at Second: 42.0
29/11 03:44:52 FINE aw.PostTraumaticAgent|Predicted at Second: 42.0
29/11 03:44:52 FINE aw.PostTraumaticAgent|Predicted at Second: 42.0
29/11 03:44:52 FINE aw.PostTraumaticAgent|Predicted at Second: 43.0
29/11 03:45:02 FINE aw.PostTraumaticAgent|Quote for auction: Cheap Hotel 4 has HQW ? true, HQW:1
29/11 03:45:02 FINE aw.PostTraumaticAgent|************ This is hotel price predictor for hotel auction:11
29/11 03:45:02 FINE aw.PostTraumaticAgent|************ Current time in minutes is: 7
29/11 03:45:02 FINE aw.PostTraumaticAgent|************ Current time in milli is: 421361
29/11 03:45:02 FINE aw.PostTraumaticAgent|************ Predicted Price is: 11
29/11 03:45:02 FINE aw.PostTraumaticAgent|************ Current Price is: 13.0
29/11 03:45:02 FINE aw.PostTraumaticAgent|************ Current Price is: 2
29/11 03:45:02 FINE aw.PostTraumaticAgent|************ Predicted for time (min  ): 8
29/11 03:45:02 FINE aw.PostTraumaticAgent|************ Predicted for time (milli): 480000
29/11 03:45:02 FINE aw.PostTraumaticAgent|================ Shorten stay by 2 days for action: Good Hotel 2 for client: 1
29/11 03:45:02 FINE aw.PostTraumaticAgent|================ Shorten stay by 3 days for action: Good Hotel 2 for client: 1
29/11 03:45:02 FINE aw.PostTraumaticAgent|================ Shorten stay by 4 days for action: Good Hotel 2 for client: 1
29/11 03:45:02 FINE aw.PostTraumaticAgent|================ Failed to shorten stay for action: Good Hotel 2 for client: 1
29/11 03:45:02 FINE aw.PostTraumaticAgent|================ Shorten stay by 2 days for action: Good Hotel 2 for client: 4
29/11 03:45:02 FINE aw.PostTraumaticAgent|================ Shorten stay by 3 days for action: Good Hotel 2 for client: 4
29/11 03:45:02 FINE aw.PostTraumaticAgent|================ Shorten stay by 4 days for action: Good Hotel 2 for client: 4
29/11 03:45:02 FINE aw.PostTraumaticAgent|================ Failed to shorten stay for action: Good Hotel 2 for client: 4
29/11 03:45:02 FINE aw.PostTraumaticAgent|================ Shorten stay by 2 days for action: Good Hotel 2 for client: 6
29/11 03:45:02 FINE aw.PostTraumaticAgent|================ Shorten stay by 3 days for action: Good Hotel 2 for client: 6
29/11 03:45:02 FINE aw.PostTraumaticAgent|================ Shorten stay by 4 days for action: Good Hotel 2 for client: 6
29/11 03:45:02 FINE aw.PostTraumaticAgent|================ Failed to shorten stay for action: Good Hotel 2 for client: 6
29/11 03:45:02 FINE aw.PostTraumaticAgent|!!!!!!!!!!!!!!!!!!!!!!! This is flight prices collected called !
29/11 03:45:02 FINE aw.PostTraumaticAgent|Predicted at Second: 43.0
29/11 03:45:02 FINE aw.PostTraumaticAgent|Predicted at Second: 43.0
29/11 03:45:02 FINE aw.PostTraumaticAgent|Predicted at Second: 43.0
29/11 03:45:02 FINE aw.PostTraumaticAgent|Predicted at Second: 43.0
29/11 03:45:02 FINE aw.PostTraumaticAgent|Predicted at Second: 43.0
29/11 03:45:02 FINE aw.PostTraumaticAgent|Predicted at Second: 43.0
29/11 03:45:02 FINE aw.PostTraumaticAgent|Predicted at Second: 43.0
29/11 03:45:02 FINE aw.PostTraumaticAgent|Predicted at Second: 43.0
29/11 03:45:02 FINE aw.PostTraumaticAgent|Bid Updated: id=25722 auction=11 state=valid
29/11 03:45:02 FINE aw.PostTraumaticAgent|Auction 13 closed!
29/11 03:45:12 FINE aw.PostTraumaticAgent|!!!!!!!!!!!!!!!!!!!!!!! This is flight prices collected called !
29/11 03:45:12 FINE aw.PostTraumaticAgent|Predicted at Second: 44.0
29/11 03:45:12 FINE aw.PostTraumaticAgent|Predicted at Second: 44.0
29/11 03:45:12 FINE aw.PostTraumaticAgent|Predicted at Second: 44.0
29/11 03:45:12 FINE aw.PostTraumaticAgent|Predicted at Second: 44.0
29/11 03:45:12 FINE aw.PostTraumaticAgent|Predicted at Second: 44.0
29/11 03:45:12 FINE aw.PostTraumaticAgent|Predicted at Second: 44.0
29/11 03:45:12 FINE aw.PostTraumaticAgent|Predicted at Second: 44.0
29/11 03:45:12 FINE aw.PostTraumaticAgent|Predicted at Second: 44.0
29/11 03:45:17 FINE aw.PostTraumaticAgent|Bid Updated: id=25722 auction=11 state=valid
29/11 03:45:22 FINE aw.PostTraumaticAgent|!!!!!!!!!!!!!!!!!!!!!!! This is flight prices collected called !
29/11 03:45:22 FINE aw.PostTraumaticAgent|Predicted at Second: 45.0
29/11 03:45:22 FINE aw.PostTraumaticAgent|Predicted at Second: 45.0
29/11 03:45:22 FINE aw.PostTraumaticAgent|Predicted at Second: 45.0
29/11 03:45:22 FINE aw.PostTraumaticAgent|Predicted at Second: 45.0
29/11 03:45:22 FINE aw.PostTraumaticAgent|Predicted at Second: 45.0
29/11 03:45:22 FINE aw.PostTraumaticAgent|Predicted at Second: 45.0
29/11 03:45:22 FINE aw.PostTraumaticAgent|Predicted at Second: 45.0
29/11 03:45:22 FINE aw.PostTraumaticAgent|Predicted at Second: 45.0
29/11 03:45:32 FINE aw.PostTraumaticAgent|!!!!!!!!!!!!!!!!!!!!!!! This is flight prices collected called !
29/11 03:45:32 FINE aw.PostTraumaticAgent|Predicted at Second: 46.0
29/11 03:45:32 FINE aw.PostTraumaticAgent|Predicted at Second: 46.0
29/11 03:45:32 FINE aw.PostTraumaticAgent|Predicted at Second: 46.0
29/11 03:45:32 FINE aw.PostTraumaticAgent|Predicted at Second: 46.0
29/11 03:45:32 FINE aw.PostTraumaticAgent|Predicted at Second: 46.0
29/11 03:45:32 FINE aw.PostTraumaticAgent|Predicted at Second: 46.0
29/11 03:45:32 FINE aw.PostTraumaticAgent|Predicted at Second: 46.0
29/11 03:45:32 FINE aw.PostTraumaticAgent|Predicted at Second: 46.0
29/11 03:45:42 FINE aw.PostTraumaticAgent|!!!!!!!!!!!!!!!!!!!!!!! This is flight prices collected called !
29/11 03:45:42 FINE aw.PostTraumaticAgent|Predicted at Second: 47.0
29/11 03:45:42 FINE aw.PostTraumaticAgent|Predicted at Second: 47.0
29/11 03:45:42 FINE aw.PostTraumaticAgent|Predicted at Second: 47.0
29/11 03:45:42 FINE aw.PostTraumaticAgent|Predicted at Second: 47.0
29/11 03:45:42 FINE aw.PostTraumaticAgent|Predicted at Second: 47.0
29/11 03:45:42 FINE aw.PostTraumaticAgent|Predicted at Second: 47.0
29/11 03:45:42 FINE aw.PostTraumaticAgent|Predicted at Second: 47.0
29/11 03:45:42 FINE aw.PostTraumaticAgent|Predicted at Second: 47.0
29/11 03:45:47 FINE aw.PostTraumaticAgent|Bid Updated: id=25722 auction=11 state=valid
29/11 03:45:52 FINE aw.PostTraumaticAgent|!!!!!!!!!!!!!!!!!!!!!!! This is flight prices collected called !
29/11 03:45:52 FINE aw.PostTraumaticAgent|Predicted at Second: 53.0
29/11 03:45:52 FINE aw.PostTraumaticAgent|Predicted at Second: 53.0
29/11 03:45:52 FINE aw.PostTraumaticAgent|Predicted at Second: 53.0
29/11 03:45:52 FINE aw.PostTraumaticAgent|Predicted at Second: 53.0
29/11 03:45:52 FINE aw.PostTraumaticAgent|Predicted at Second: 53.0
29/11 03:45:52 FINE aw.PostTraumaticAgent|Predicted at Second: 48.0
29/11 03:45:52 FINE aw.PostTraumaticAgent|Predicted at Second: 48.0
29/11 03:45:52 FINE aw.PostTraumaticAgent|Predicted at Second: 48.0
29/11 03:46:02 FINE aw.PostTraumaticAgent|================ Shorten stay by 2 days for action: Cheap Hotel 4 for client: 3
29/11 03:46:02 FINE aw.PostTraumaticAgent|================ Shorten stay by 3 days for action: Cheap Hotel 4 for client: 3
29/11 03:46:02 FINE aw.PostTraumaticAgent|================ Shorten stay by 4 days for action: Cheap Hotel 4 for client: 3
29/11 03:46:02 FINE aw.PostTraumaticAgent|================ Failed to shorten stay for action: Cheap Hotel 4 for client: 3
29/11 03:46:02 FINE aw.PostTraumaticAgent|!!!!!!!!!!!!!!!!!!!!!!! This is flight prices collected called !
29/11 03:46:02 FINE aw.PostTraumaticAgent|Predicted at Second: 53.0
29/11 03:46:02 FINE aw.PostTraumaticAgent|Predicted at Second: 53.0
29/11 03:46:02 FINE aw.PostTraumaticAgent|Predicted at Second: 53.0
29/11 03:46:02 FINE aw.PostTraumaticAgent|Predicted at Second: 53.0
29/11 03:46:02 FINE aw.PostTraumaticAgent|Predicted at Second: 53.0
29/11 03:46:02 FINE aw.PostTraumaticAgent|Predicted at Second: 49.0
29/11 03:46:02 FINE aw.PostTraumaticAgent|Predicted at Second: 49.0
29/11 03:46:02 FINE aw.PostTraumaticAgent|Predicted at Second: 49.0
29/11 03:46:02 FINE aw.PostTraumaticAgent|Auction 11 closed!
29/11 03:46:12 FINE aw.PostTraumaticAgent|!!!!!!!!!!!!!!!!!!!!!!! This is flight prices collected called !
29/11 03:46:12 FINE aw.PostTraumaticAgent|Predicted at Second: 53.0
29/11 03:46:12 FINE aw.PostTraumaticAgent|Predicted at Second: 53.0
29/11 03:46:12 FINE aw.PostTraumaticAgent|Predicted at Second: 53.0
29/11 03:46:12 FINE aw.PostTraumaticAgent|Predicted at Second: 53.0
29/11 03:46:12 FINE aw.PostTraumaticAgent|Predicted at Second: 53.0
29/11 03:46:12 FINE aw.PostTraumaticAgent|Predicted at Second: 50.0
29/11 03:46:12 FINE aw.PostTraumaticAgent|Predicted at Second: 50.0
29/11 03:46:12 FINE aw.PostTraumaticAgent|Predicted at Second: 50.0
29/11 03:46:22 FINE aw.PostTraumaticAgent|!!!!!!!!!!!!!!!!!!!!!!! This is flight prices collected called !
29/11 03:46:22 FINE aw.PostTraumaticAgent|Predicted at Second: 53.0
29/11 03:46:22 FINE aw.PostTraumaticAgent|Predicted at Second: 53.0
29/11 03:46:22 FINE aw.PostTraumaticAgent|Predicted at Second: 53.0
29/11 03:46:22 FINE aw.PostTraumaticAgent|Predicted at Second: 53.0
29/11 03:46:22 FINE aw.PostTraumaticAgent|Predicted at Second: 53.0
29/11 03:46:22 FINE aw.PostTraumaticAgent|Predicted at Second: 51.0
29/11 03:46:22 FINE aw.PostTraumaticAgent|Predicted at Second: 51.0
29/11 03:46:22 FINE aw.PostTraumaticAgent|Predicted at Second: 51.0
29/11 03:46:32 FINE aw.PostTraumaticAgent|!!!!!!!!!!!!!!!!!!!!!!! This is flight prices collected called !
29/11 03:46:32 FINE aw.PostTraumaticAgent|Predicted at Second: 53.0
29/11 03:46:32 FINE aw.PostTraumaticAgent|Predicted at Second: 53.0
29/11 03:46:32 FINE aw.PostTraumaticAgent|Predicted at Second: 53.0
29/11 03:46:32 FINE aw.PostTraumaticAgent|Predicted at Second: 53.0
29/11 03:46:32 FINE aw.PostTraumaticAgent|Predicted at Second: 53.0
29/11 03:46:32 FINE aw.PostTraumaticAgent|Predicted at Second: 52.0
29/11 03:46:32 FINE aw.PostTraumaticAgent|Predicted at Second: 52.0
29/11 03:46:32 FINE aw.PostTraumaticAgent|Predicted at Second: 52.0
29/11 03:46:42 FINE aw.PostTraumaticAgent|!!!!!!!!!!!!!!!!!!!!!!! This is flight prices collected called !
29/11 03:46:42 FINE aw.PostTraumaticAgent|Predicted at Second: 53.0
29/11 03:46:42 FINE aw.PostTraumaticAgent|Predicted at Second: 53.0
29/11 03:46:42 FINE aw.PostTraumaticAgent|Predicted at Second: 53.0
29/11 03:46:42 FINE aw.PostTraumaticAgent|Predicted at Second: 53.0
29/11 03:46:42 FINE aw.PostTraumaticAgent|Predicted at Second: 53.0
29/11 03:46:42 FINE aw.PostTraumaticAgent|Predicted at Second: 53.0
29/11 03:46:42 FINE aw.PostTraumaticAgent|Predicted at Second: 53.0
29/11 03:46:42 FINE aw.PostTraumaticAgent|Predicted at Second: 53.0
29/11 03:46:52 FINE aw.PostTraumaticAgent|!!!!!!!!!!!!!!!!!!!!!!! This is flight prices collected called !
29/11 03:46:52 FINE aw.PostTraumaticAgent|Bid Updated: id=25829 auction=0 state=transacted
29/11 03:46:52 FINE aw.PostTraumaticAgent|Bid Updated: id=25830 auction=1 state=transacted
29/11 03:46:52 FINE aw.PostTraumaticAgent|Bid Updated: id=25831 auction=2 state=transacted
29/11 03:46:52 FINE aw.PostTraumaticAgent|Bid Updated: id=25832 auction=3 state=transacted
29/11 03:46:52 FINE aw.PostTraumaticAgent|Bid Updated: id=25833 auction=4 state=transacted
29/11 03:46:52 FINE aw.PostTraumaticAgent|Bid Updated: id=25834 auction=5 state=transacted
29/11 03:46:52 FINE aw.PostTraumaticAgent|Bid Updated: id=25835 auction=6 state=transacted
29/11 03:46:52 FINE aw.PostTraumaticAgent|Bid Updated: id=25836 auction=7 state=transacted
29/11 03:47:02 FINE aw.TACAgent|Game 31 has ended
29/11 03:47:02 FINE aw.PostTraumaticAgent|Start Printing All Flight Prices
29/11 03:47:02 FINE aw.PostTraumaticAgent|Printing (time, price) for Inflight 1 :
29/11 03:47:02 FINE aw.PostTraumaticAgent|1115, 395.0
29/11 03:47:02 FINE aw.PostTraumaticAgent|11095, 393.0
29/11 03:47:02 FINE aw.PostTraumaticAgent|21102, 390.0
29/11 03:47:02 FINE aw.PostTraumaticAgent|31135, 386.0
29/11 03:47:02 FINE aw.PostTraumaticAgent|41111, 383.0
29/11 03:47:02 FINE aw.PostTraumaticAgent|51155, 382.0
29/11 03:47:02 FINE aw.PostTraumaticAgent|61173, 379.0
29/11 03:47:02 FINE aw.PostTraumaticAgent|71130, 370.0
29/11 03:47:02 FINE aw.PostTraumaticAgent|81135, 377.0
29/11 03:47:02 FINE aw.PostTraumaticAgent|91174, 382.0
29/11 03:47:02 FINE aw.PostTraumaticAgent|101143, 376.0
29/11 03:47:02 FINE aw.PostTraumaticAgent|111149, 377.0
29/11 03:47:02 FINE aw.PostTraumaticAgent|121200, 391.0
29/11 03:47:02 FINE aw.PostTraumaticAgent|131158, 403.0
29/11 03:47:02 FINE aw.PostTraumaticAgent|147267, 398.0
29/11 03:47:02 FINE aw.PostTraumaticAgent|151216, 402.0
29/11 03:47:02 FINE aw.PostTraumaticAgent|161182, 416.0
29/11 03:47:02 FINE aw.PostTraumaticAgent|171182, 412.0
29/11 03:47:02 FINE aw.PostTraumaticAgent|181262, 410.0
29/11 03:47:02 FINE aw.PostTraumaticAgent|191190, 411.0
29/11 03:47:02 FINE aw.PostTraumaticAgent|201191, 425.0
29/11 03:47:02 FINE aw.PostTraumaticAgent|211224, 441.0
29/11 03:47:02 FINE aw.PostTraumaticAgent|221205, 449.0
29/11 03:47:02 FINE aw.PostTraumaticAgent|231208, 463.0
29/11 03:47:02 FINE aw.PostTraumaticAgent|241266, 462.0
29/11 03:47:02 FINE aw.PostTraumaticAgent|251220, 477.0
29/11 03:47:02 FINE aw.PostTraumaticAgent|261221, 484.0
29/11 03:47:02 FINE aw.PostTraumaticAgent|271247, 499.0
29/11 03:47:02 FINE aw.PostTraumaticAgent|281230, 499.0
29/11 03:47:02 FINE aw.PostTraumaticAgent|291235, 510.0
29/11 03:47:02 FINE aw.PostTraumaticAgent|301293, 516.0
29/11 03:47:02 FINE aw.PostTraumaticAgent|311243, 535.0
29/11 03:47:02 FINE aw.PostTraumaticAgent|321248, 549.0
29/11 03:47:02 FINE aw.PostTraumaticAgent|331284, 562.0
29/11 03:47:02 FINE aw.PostTraumaticAgent|341259, 577.0
29/11 03:47:02 FINE aw.PostTraumaticAgent|351291, 570.0
29/11 03:47:02 FINE aw.PostTraumaticAgent|361385, 566.0
29/11 03:47:02 FINE aw.PostTraumaticAgent|371343, 570.0
29/11 03:47:02 FINE aw.PostTraumaticAgent|381373, 587.0
29/11 03:47:02 FINE aw.PostTraumaticAgent|391389, 609.0
29/11 03:47:02 FINE aw.PostTraumaticAgent|401365, 612.0
29/11 03:47:02 FINE aw.PostTraumaticAgent|411372, 634.0
29/11 03:47:02 FINE aw.PostTraumaticAgent|421407, 638.0
29/11 03:47:02 FINE aw.PostTraumaticAgent|431376, 647.0
29/11 03:47:02 FINE aw.PostTraumaticAgent|441379, 667.0
29/11 03:47:02 FINE aw.PostTraumaticAgent|451408, 692.0
29/11 03:47:02 FINE aw.PostTraumaticAgent|461388, 716.0
29/11 03:47:02 FINE aw.PostTraumaticAgent|471396, 709.0
29/11 03:47:02 FINE aw.PostTraumaticAgent|481418, 706.0
29/11 03:47:02 FINE aw.PostTraumaticAgent|491402, 708.0
29/11 03:47:02 FINE aw.PostTraumaticAgent|501408, 737.0
29/11 03:47:02 FINE aw.PostTraumaticAgent|511435, 757.0
29/11 03:47:02 FINE aw.PostTraumaticAgent|521415, 783.0
29/11 03:47:02 FINE aw.PostTraumaticAgent|531419, 800.0
29/11 03:47:02 FINE aw.PostTraumaticAgent|Printing (time, price) for Inflight 2 :
29/11 03:47:02 FINE aw.PostTraumaticAgent|1115, 280.0
29/11 03:47:02 FINE aw.PostTraumaticAgent|11095, 280.0
29/11 03:47:02 FINE aw.PostTraumaticAgent|21102, 275.0
29/11 03:47:02 FINE aw.PostTraumaticAgent|31135, 273.0
29/11 03:47:02 FINE aw.PostTraumaticAgent|41111, 281.0
29/11 03:47:02 FINE aw.PostTraumaticAgent|51155, 284.0
29/11 03:47:02 FINE aw.PostTraumaticAgent|61173, 281.0
29/11 03:47:02 FINE aw.PostTraumaticAgent|71130, 274.0
29/11 03:47:02 FINE aw.PostTraumaticAgent|81135, 268.0
29/11 03:47:02 FINE aw.PostTraumaticAgent|91174, 279.0
29/11 03:47:02 FINE aw.PostTraumaticAgent|101143, 276.0
29/11 03:47:02 FINE aw.PostTraumaticAgent|111149, 286.0
29/11 03:47:02 FINE aw.PostTraumaticAgent|121200, 296.0
29/11 03:47:02 FINE aw.PostTraumaticAgent|131158, 301.0
29/11 03:47:02 FINE aw.PostTraumaticAgent|147267, 303.0
29/11 03:47:02 FINE aw.PostTraumaticAgent|151216, 314.0
29/11 03:47:02 FINE aw.PostTraumaticAgent|161182, 317.0
29/11 03:47:02 FINE aw.PostTraumaticAgent|171182, 315.0
29/11 03:47:02 FINE aw.PostTraumaticAgent|181262, 320.0
29/11 03:47:02 FINE aw.PostTraumaticAgent|191190, 315.0
29/11 03:47:02 FINE aw.PostTraumaticAgent|201191, 310.0
29/11 03:47:02 FINE aw.PostTraumaticAgent|211224, 322.0
29/11 03:47:02 FINE aw.PostTraumaticAgent|221205, 316.0
29/11 03:47:02 FINE aw.PostTraumaticAgent|231208, 323.0
29/11 03:47:02 FINE aw.PostTraumaticAgent|241266, 325.0
29/11 03:47:02 FINE aw.PostTraumaticAgent|251220, 330.0
29/11 03:47:02 FINE aw.PostTraumaticAgent|261221, 336.0
29/11 03:47:02 FINE aw.PostTraumaticAgent|271247, 338.0
29/11 03:47:02 FINE aw.PostTraumaticAgent|281230, 348.0
29/11 03:47:02 FINE aw.PostTraumaticAgent|291235, 338.0
29/11 03:47:02 FINE aw.PostTraumaticAgent|301293, 341.0
29/11 03:47:02 FINE aw.PostTraumaticAgent|311243, 352.0
29/11 03:47:02 FINE aw.PostTraumaticAgent|321248, 356.0
29/11 03:47:02 FINE aw.PostTraumaticAgent|331284, 368.0
29/11 03:47:02 FINE aw.PostTraumaticAgent|341259, 361.0
29/11 03:47:02 FINE aw.PostTraumaticAgent|351291, 368.0
29/11 03:47:02 FINE aw.PostTraumaticAgent|361385, 368.0
29/11 03:47:02 FINE aw.PostTraumaticAgent|371343, 378.0
29/11 03:47:02 FINE aw.PostTraumaticAgent|381373, 389.0
29/11 03:47:02 FINE aw.PostTraumaticAgent|391389, 392.0
29/11 03:47:02 FINE aw.PostTraumaticAgent|401365, 398.0
29/11 03:47:02 FINE aw.PostTraumaticAgent|411372, 405.0
29/11 03:47:02 FINE aw.PostTraumaticAgent|421407, 413.0
29/11 03:47:02 FINE aw.PostTraumaticAgent|431376, 420.0
29/11 03:47:02 FINE aw.PostTraumaticAgent|441379, 431.0
29/11 03:47:02 FINE aw.PostTraumaticAgent|451408, 422.0
29/11 03:47:02 FINE aw.PostTraumaticAgent|461388, 413.0
29/11 03:47:02 FINE aw.PostTraumaticAgent|471396, 416.0
29/11 03:47:02 FINE aw.PostTraumaticAgent|481418, 408.0
29/11 03:47:02 FINE aw.PostTraumaticAgent|491402, 421.0
29/11 03:47:02 FINE aw.PostTraumaticAgent|501408, 430.0
29/11 03:47:02 FINE aw.PostTraumaticAgent|511435, 439.0
29/11 03:47:02 FINE aw.PostTraumaticAgent|521415, 451.0
29/11 03:47:02 FINE aw.PostTraumaticAgent|531419, 444.0
29/11 03:47:02 FINE aw.PostTraumaticAgent|Printing (time, price) for Inflight 3 :
29/11 03:47:02 FINE aw.PostTraumaticAgent|1115, 288.0
29/11 03:47:02 FINE aw.PostTraumaticAgent|11095, 291.0
29/11 03:47:02 FINE aw.PostTraumaticAgent|21102, 294.0
29/11 03:47:02 FINE aw.PostTraumaticAgent|31135, 285.0
29/11 03:47:02 FINE aw.PostTraumaticAgent|41111, 289.0
29/11 03:47:02 FINE aw.PostTraumaticAgent|51155, 284.0
29/11 03:47:02 FINE aw.PostTraumaticAgent|61173, 274.0
29/11 03:47:02 FINE aw.PostTraumaticAgent|71130, 278.0
29/11 03:47:02 FINE aw.PostTraumaticAgent|81135, 271.0
29/11 03:47:02 FINE aw.PostTraumaticAgent|91174, 278.0
29/11 03:47:02 FINE aw.PostTraumaticAgent|101143, 278.0
29/11 03:47:02 FINE aw.PostTraumaticAgent|111149, 275.0
29/11 03:47:02 FINE aw.PostTraumaticAgent|121200, 271.0
29/11 03:47:02 FINE aw.PostTraumaticAgent|131158, 281.0
29/11 03:47:02 FINE aw.PostTraumaticAgent|147267, 291.0
29/11 03:47:02 FINE aw.PostTraumaticAgent|151216, 297.0
29/11 03:47:02 FINE aw.PostTraumaticAgent|161182, 304.0
29/11 03:47:02 FINE aw.PostTraumaticAgent|171182, 310.0
29/11 03:47:02 FINE aw.PostTraumaticAgent|181262, 318.0
29/11 03:47:02 FINE aw.PostTraumaticAgent|191190, 326.0
29/11 03:47:02 FINE aw.PostTraumaticAgent|201191, 335.0
29/11 03:47:02 FINE aw.PostTraumaticAgent|211224, 331.0
29/11 03:47:02 FINE aw.PostTraumaticAgent|221205, 336.0
29/11 03:47:02 FINE aw.PostTraumaticAgent|231208, 326.0
29/11 03:47:02 FINE aw.PostTraumaticAgent|241266, 336.0
29/11 03:47:02 FINE aw.PostTraumaticAgent|251220, 343.0
29/11 03:47:02 FINE aw.PostTraumaticAgent|261221, 347.0
29/11 03:47:02 FINE aw.PostTraumaticAgent|271247, 339.0
29/11 03:47:02 FINE aw.PostTraumaticAgent|281230, 339.0
29/11 03:47:02 FINE aw.PostTraumaticAgent|291235, 344.0
29/11 03:47:02 FINE aw.PostTraumaticAgent|301293, 334.0
29/11 03:47:02 FINE aw.PostTraumaticAgent|311243, 341.0
29/11 03:47:02 FINE aw.PostTraumaticAgent|321248, 349.0
29/11 03:47:02 FINE aw.PostTraumaticAgent|331284, 346.0
29/11 03:47:02 FINE aw.PostTraumaticAgent|341259, 351.0
29/11 03:47:02 FINE aw.PostTraumaticAgent|351291, 341.0
29/11 03:47:02 FINE aw.PostTraumaticAgent|361385, 331.0
29/11 03:47:02 FINE aw.PostTraumaticAgent|371343, 327.0
29/11 03:47:02 FINE aw.PostTraumaticAgent|381373, 329.0
29/11 03:47:02 FINE aw.PostTraumaticAgent|391389, 321.0
29/11 03:47:02 FINE aw.PostTraumaticAgent|401365, 319.0
29/11 03:47:02 FINE aw.PostTraumaticAgent|411372, 313.0
29/11 03:47:02 FINE aw.PostTraumaticAgent|421407, 311.0
29/11 03:47:02 FINE aw.PostTraumaticAgent|431376, 320.0
29/11 03:47:02 FINE aw.PostTraumaticAgent|441379, 316.0
29/11 03:47:02 FINE aw.PostTraumaticAgent|451408, 319.0
29/11 03:47:02 FINE aw.PostTraumaticAgent|461388, 323.0
29/11 03:47:02 FINE aw.PostTraumaticAgent|471396, 314.0
29/11 03:47:02 FINE aw.PostTraumaticAgent|481418, 312.0
29/11 03:47:02 FINE aw.PostTraumaticAgent|491402, 314.0
29/11 03:47:02 FINE aw.PostTraumaticAgent|501408, 319.0
29/11 03:47:02 FINE aw.PostTraumaticAgent|511435, 321.0
29/11 03:47:02 FINE aw.PostTraumaticAgent|521415, 326.0
29/11 03:47:02 FINE aw.PostTraumaticAgent|531419, 335.0
29/11 03:47:02 FINE aw.PostTraumaticAgent|Printing (time, price) for Inflight 4 :
29/11 03:47:02 FINE aw.PostTraumaticAgent|1115, 261.0
29/11 03:47:02 FINE aw.PostTraumaticAgent|11095, 251.0
29/11 03:47:02 FINE aw.PostTraumaticAgent|21102, 243.0
29/11 03:47:02 FINE aw.PostTraumaticAgent|31135, 252.0
29/11 03:47:02 FINE aw.PostTraumaticAgent|41111, 253.0
29/11 03:47:02 FINE aw.PostTraumaticAgent|51155, 260.0
29/11 03:47:02 FINE aw.PostTraumaticAgent|61173, 263.0
29/11 03:47:02 FINE aw.PostTraumaticAgent|71130, 257.0
29/11 03:47:02 FINE aw.PostTraumaticAgent|81135, 248.0
29/11 03:47:02 FINE aw.PostTraumaticAgent|91174, 254.0
29/11 03:47:02 FINE aw.PostTraumaticAgent|101143, 244.0
29/11 03:47:02 FINE aw.PostTraumaticAgent|111149, 245.0
29/11 03:47:02 FINE aw.PostTraumaticAgent|121200, 245.0
29/11 03:47:02 FINE aw.PostTraumaticAgent|131158, 244.0
29/11 03:47:02 FINE aw.PostTraumaticAgent|147267, 238.0
29/11 03:47:02 FINE aw.PostTraumaticAgent|151216, 239.0
29/11 03:47:02 FINE aw.PostTraumaticAgent|161182, 234.0
29/11 03:47:02 FINE aw.PostTraumaticAgent|171182, 232.0
29/11 03:47:02 FINE aw.PostTraumaticAgent|181262, 234.0
29/11 03:47:02 FINE aw.PostTraumaticAgent|191190, 224.0
29/11 03:47:02 FINE aw.PostTraumaticAgent|201191, 215.0
29/11 03:47:02 FINE aw.PostTraumaticAgent|211224, 211.0
29/11 03:47:02 FINE aw.PostTraumaticAgent|221205, 210.0
29/11 03:47:02 FINE aw.PostTraumaticAgent|231208, 201.0
29/11 03:47:02 FINE aw.PostTraumaticAgent|241266, 195.0
29/11 03:47:02 FINE aw.PostTraumaticAgent|251220, 187.0
29/11 03:47:02 FINE aw.PostTraumaticAgent|261221, 186.0
29/11 03:47:02 FINE aw.PostTraumaticAgent|271247, 176.0
29/11 03:47:02 FINE aw.PostTraumaticAgent|281230, 181.0
29/11 03:47:02 FINE aw.PostTraumaticAgent|291235, 188.0
29/11 03:47:02 FINE aw.PostTraumaticAgent|301293, 194.0
29/11 03:47:02 FINE aw.PostTraumaticAgent|311243, 195.0
29/11 03:47:02 FINE aw.PostTraumaticAgent|321248, 205.0
29/11 03:47:02 FINE aw.PostTraumaticAgent|331284, 210.0
29/11 03:47:02 FINE aw.PostTraumaticAgent|341259, 209.0
29/11 03:47:02 FINE aw.PostTraumaticAgent|351291, 208.0
29/11 03:47:02 FINE aw.PostTraumaticAgent|361385, 212.0
29/11 03:47:02 FINE aw.PostTraumaticAgent|371343, 213.0
29/11 03:47:02 FINE aw.PostTraumaticAgent|381373, 216.0
29/11 03:47:02 FINE aw.PostTraumaticAgent|391389, 215.0
29/11 03:47:02 FINE aw.PostTraumaticAgent|401365, 221.0
29/11 03:47:02 FINE aw.PostTraumaticAgent|411372, 219.0
29/11 03:47:02 FINE aw.PostTraumaticAgent|421407, 228.0
29/11 03:47:02 FINE aw.PostTraumaticAgent|431376, 235.0
29/11 03:47:02 FINE aw.PostTraumaticAgent|441379, 242.0
29/11 03:47:02 FINE aw.PostTraumaticAgent|451408, 245.0
29/11 03:47:02 FINE aw.PostTraumaticAgent|461388, 244.0
29/11 03:47:02 FINE aw.PostTraumaticAgent|471396, 248.0
29/11 03:47:02 FINE aw.PostTraumaticAgent|481418, 255.0
29/11 03:47:02 FINE aw.PostTraumaticAgent|491402, 261.0
29/11 03:47:02 FINE aw.PostTraumaticAgent|501408, 255.0
29/11 03:47:02 FINE aw.PostTraumaticAgent|511435, 254.0
29/11 03:47:02 FINE aw.PostTraumaticAgent|521415, 247.0
29/11 03:47:02 FINE aw.PostTraumaticAgent|531419, 253.0
29/11 03:47:02 FINE aw.PostTraumaticAgent|Printing (time, price) for Outflight 2 :
29/11 03:47:02 FINE aw.PostTraumaticAgent|1115, 303.0
29/11 03:47:02 FINE aw.PostTraumaticAgent|11095, 295.0
29/11 03:47:02 FINE aw.PostTraumaticAgent|21102, 297.0
29/11 03:47:02 FINE aw.PostTraumaticAgent|31135, 295.0
29/11 03:47:02 FINE aw.PostTraumaticAgent|41111, 290.0
29/11 03:47:02 FINE aw.PostTraumaticAgent|51155, 294.0
29/11 03:47:02 FINE aw.PostTraumaticAgent|61173, 292.0
29/11 03:47:02 FINE aw.PostTraumaticAgent|71130, 282.0
29/11 03:47:02 FINE aw.PostTraumaticAgent|81135, 272.0
29/11 03:47:02 FINE aw.PostTraumaticAgent|91174, 272.0
29/11 03:47:02 FINE aw.PostTraumaticAgent|101143, 265.0
29/11 03:47:02 FINE aw.PostTraumaticAgent|111149, 264.0
29/11 03:47:02 FINE aw.PostTraumaticAgent|121200, 264.0
29/11 03:47:02 FINE aw.PostTraumaticAgent|131158, 254.0
29/11 03:47:02 FINE aw.PostTraumaticAgent|147267, 246.0
29/11 03:47:02 FINE aw.PostTraumaticAgent|151216, 249.0
29/11 03:47:02 FINE aw.PostTraumaticAgent|161182, 243.0
29/11 03:47:02 FINE aw.PostTraumaticAgent|171182, 246.0
29/11 03:47:02 FINE aw.PostTraumaticAgent|181262, 239.0
29/11 03:47:02 FINE aw.PostTraumaticAgent|191190, 233.0
29/11 03:47:02 FINE aw.PostTraumaticAgent|201191, 225.0
29/11 03:47:02 FINE aw.PostTraumaticAgent|211224, 228.0
29/11 03:47:02 FINE aw.PostTraumaticAgent|221205, 224.0
29/11 03:47:02 FINE aw.PostTraumaticAgent|231208, 223.0
29/11 03:47:02 FINE aw.PostTraumaticAgent|241266, 214.0
29/11 03:47:02 FINE aw.PostTraumaticAgent|251220, 211.0
29/11 03:47:02 FINE aw.PostTraumaticAgent|261221, 209.0
29/11 03:47:02 FINE aw.PostTraumaticAgent|271247, 205.0
29/11 03:47:02 FINE aw.PostTraumaticAgent|281230, 200.0
29/11 03:47:02 FINE aw.PostTraumaticAgent|291235, 205.0
29/11 03:47:02 FINE aw.PostTraumaticAgent|301293, 205.0
29/11 03:47:02 FINE aw.PostTraumaticAgent|311243, 211.0
29/11 03:47:02 FINE aw.PostTraumaticAgent|321248, 213.0
29/11 03:47:02 FINE aw.PostTraumaticAgent|331284, 215.0
29/11 03:47:02 FINE aw.PostTraumaticAgent|341259, 215.0
29/11 03:47:02 FINE aw.PostTraumaticAgent|351291, 223.0
29/11 03:47:02 FINE aw.PostTraumaticAgent|361385, 230.0
29/11 03:47:02 FINE aw.PostTraumaticAgent|371343, 228.0
29/11 03:47:02 FINE aw.PostTraumaticAgent|381373, 231.0
29/11 03:47:02 FINE aw.PostTraumaticAgent|391389, 229.0
29/11 03:47:02 FINE aw.PostTraumaticAgent|401365, 227.0
29/11 03:47:02 FINE aw.PostTraumaticAgent|411372, 236.0
29/11 03:47:02 FINE aw.PostTraumaticAgent|421407, 239.0
29/11 03:47:02 FINE aw.PostTraumaticAgent|431376, 246.0
29/11 03:47:02 FINE aw.PostTraumaticAgent|441379, 246.0
29/11 03:47:02 FINE aw.PostTraumaticAgent|451408, 254.0
29/11 03:47:02 FINE aw.PostTraumaticAgent|461388, 251.0
29/11 03:47:02 FINE aw.PostTraumaticAgent|471396, 247.0
29/11 03:47:02 FINE aw.PostTraumaticAgent|481418, 257.0
29/11 03:47:02 FINE aw.PostTraumaticAgent|491402, 263.0
29/11 03:47:02 FINE aw.PostTraumaticAgent|501408, 260.0
29/11 03:47:02 FINE aw.PostTraumaticAgent|511435, 256.0
29/11 03:47:02 FINE aw.PostTraumaticAgent|521415, 256.0
29/11 03:47:02 FINE aw.PostTraumaticAgent|531419, 263.0
29/11 03:47:02 FINE aw.PostTraumaticAgent|Printing (time, price) for Outflight 3 :
29/11 03:47:02 FINE aw.PostTraumaticAgent|1115, 377.0
29/11 03:47:02 FINE aw.PostTraumaticAgent|11095, 378.0
29/11 03:47:02 FINE aw.PostTraumaticAgent|21102, 373.0
29/11 03:47:02 FINE aw.PostTraumaticAgent|31135, 378.0
29/11 03:47:02 FINE aw.PostTraumaticAgent|41111, 377.0
29/11 03:47:02 FINE aw.PostTraumaticAgent|51155, 376.0
29/11 03:47:02 FINE aw.PostTraumaticAgent|61173, 376.0
29/11 03:47:02 FINE aw.PostTraumaticAgent|71130, 370.0
29/11 03:47:02 FINE aw.PostTraumaticAgent|81135, 360.0
29/11 03:47:02 FINE aw.PostTraumaticAgent|91174, 364.0
29/11 03:47:02 FINE aw.PostTraumaticAgent|101143, 374.0
29/11 03:47:02 FINE aw.PostTraumaticAgent|111149, 365.0
29/11 03:47:02 FINE aw.PostTraumaticAgent|121200, 365.0
29/11 03:47:02 FINE aw.PostTraumaticAgent|131158, 361.0
29/11 03:47:02 FINE aw.PostTraumaticAgent|147267, 362.0
29/11 03:47:02 FINE aw.PostTraumaticAgent|151216, 359.0
29/11 03:47:02 FINE aw.PostTraumaticAgent|161182, 368.0
29/11 03:47:02 FINE aw.PostTraumaticAgent|171182, 378.0
29/11 03:47:02 FINE aw.PostTraumaticAgent|181262, 373.0
29/11 03:47:02 FINE aw.PostTraumaticAgent|191190, 382.0
29/11 03:47:02 FINE aw.PostTraumaticAgent|201191, 390.0
29/11 03:47:02 FINE aw.PostTraumaticAgent|211224, 390.0
29/11 03:47:02 FINE aw.PostTraumaticAgent|221205, 391.0
29/11 03:47:02 FINE aw.PostTraumaticAgent|231208, 386.0
29/11 03:47:02 FINE aw.PostTraumaticAgent|241266, 378.0
29/11 03:47:02 FINE aw.PostTraumaticAgent|251220, 378.0
29/11 03:47:02 FINE aw.PostTraumaticAgent|261221, 388.0
29/11 03:47:02 FINE aw.PostTraumaticAgent|271247, 383.0
29/11 03:47:02 FINE aw.PostTraumaticAgent|281230, 380.0
29/11 03:47:02 FINE aw.PostTraumaticAgent|291235, 394.0
29/11 03:47:02 FINE aw.PostTraumaticAgent|301293, 395.0
29/11 03:47:02 FINE aw.PostTraumaticAgent|311243, 400.0
29/11 03:47:02 FINE aw.PostTraumaticAgent|321248, 397.0
29/11 03:47:02 FINE aw.PostTraumaticAgent|331284, 406.0
29/11 03:47:02 FINE aw.PostTraumaticAgent|341259, 398.0
29/11 03:47:02 FINE aw.PostTraumaticAgent|351291, 404.0
29/11 03:47:02 FINE aw.PostTraumaticAgent|361385, 414.0
29/11 03:47:02 FINE aw.PostTraumaticAgent|371343, 430.0
29/11 03:47:02 FINE aw.PostTraumaticAgent|381373, 434.0
29/11 03:47:02 FINE aw.PostTraumaticAgent|391389, 425.0
29/11 03:47:02 FINE aw.PostTraumaticAgent|401365, 435.0
29/11 03:47:02 FINE aw.PostTraumaticAgent|411372, 453.0
29/11 03:47:02 FINE aw.PostTraumaticAgent|421407, 451.0
29/11 03:47:02 FINE aw.PostTraumaticAgent|431376, 443.0
29/11 03:47:02 FINE aw.PostTraumaticAgent|441379, 462.0
29/11 03:47:02 FINE aw.PostTraumaticAgent|451408, 455.0
29/11 03:47:02 FINE aw.PostTraumaticAgent|461388, 462.0
29/11 03:47:02 FINE aw.PostTraumaticAgent|471396, 463.0
29/11 03:47:02 FINE aw.PostTraumaticAgent|481418, 458.0
29/11 03:47:02 FINE aw.PostTraumaticAgent|491402, 451.0
29/11 03:47:02 FINE aw.PostTraumaticAgent|501408, 453.0
29/11 03:47:02 FINE aw.PostTraumaticAgent|511435, 470.0
29/11 03:47:02 FINE aw.PostTraumaticAgent|521415, 474.0
29/11 03:47:02 FINE aw.PostTraumaticAgent|531419, 478.0
29/11 03:47:02 FINE aw.PostTraumaticAgent|Printing (time, price) for Outflight 4 :
29/11 03:47:02 FINE aw.PostTraumaticAgent|1115, 265.0
29/11 03:47:02 FINE aw.PostTraumaticAgent|11095, 270.0
29/11 03:47:02 FINE aw.PostTraumaticAgent|21102, 274.0
29/11 03:47:02 FINE aw.PostTraumaticAgent|31135, 267.0
29/11 03:47:02 FINE aw.PostTraumaticAgent|41111, 267.0
29/11 03:47:02 FINE aw.PostTraumaticAgent|51155, 259.0
29/11 03:47:02 FINE aw.PostTraumaticAgent|61173, 261.0
29/11 03:47:02 FINE aw.PostTraumaticAgent|71130, 266.0
29/11 03:47:02 FINE aw.PostTraumaticAgent|81135, 278.0
29/11 03:47:02 FINE aw.PostTraumaticAgent|91174, 286.0
29/11 03:47:02 FINE aw.PostTraumaticAgent|101143, 287.0
29/11 03:47:02 FINE aw.PostTraumaticAgent|111149, 280.0
29/11 03:47:02 FINE aw.PostTraumaticAgent|121200, 270.0
29/11 03:47:02 FINE aw.PostTraumaticAgent|131158, 264.0
29/11 03:47:02 FINE aw.PostTraumaticAgent|147267, 255.0
29/11 03:47:02 FINE aw.PostTraumaticAgent|151216, 252.0
29/11 03:47:02 FINE aw.PostTraumaticAgent|161182, 252.0
29/11 03:47:02 FINE aw.PostTraumaticAgent|171182, 255.0
29/11 03:47:02 FINE aw.PostTraumaticAgent|181262, 265.0
29/11 03:47:02 FINE aw.PostTraumaticAgent|191190, 259.0
29/11 03:47:02 FINE aw.PostTraumaticAgent|201191, 251.0
29/11 03:47:02 FINE aw.PostTraumaticAgent|211224, 264.0
29/11 03:47:02 FINE aw.PostTraumaticAgent|221205, 270.0
29/11 03:47:02 FINE aw.PostTraumaticAgent|231208, 268.0
29/11 03:47:02 FINE aw.PostTraumaticAgent|241266, 275.0
29/11 03:47:02 FINE aw.PostTraumaticAgent|251220, 270.0
29/11 03:47:02 FINE aw.PostTraumaticAgent|261221, 265.0
29/11 03:47:02 FINE aw.PostTraumaticAgent|271247, 255.0
29/11 03:47:02 FINE aw.PostTraumaticAgent|281230, 265.0
29/11 03:47:02 FINE aw.PostTraumaticAgent|291235, 274.0
29/11 03:47:02 FINE aw.PostTraumaticAgent|301293, 275.0
29/11 03:47:02 FINE aw.PostTraumaticAgent|311243, 286.0
29/11 03:47:02 FINE aw.PostTraumaticAgent|321248, 285.0
29/11 03:47:02 FINE aw.PostTraumaticAgent|331284, 290.0
29/11 03:47:02 FINE aw.PostTraumaticAgent|341259, 289.0
29/11 03:47:02 FINE aw.PostTraumaticAgent|351291, 279.0
29/11 03:47:02 FINE aw.PostTraumaticAgent|361385, 287.0
29/11 03:47:02 FINE aw.PostTraumaticAgent|371343, 288.0
29/11 03:47:02 FINE aw.PostTraumaticAgent|381373, 306.0
29/11 03:47:02 FINE aw.PostTraumaticAgent|391389, 298.0
29/11 03:47:02 FINE aw.PostTraumaticAgent|401365, 292.0
29/11 03:47:02 FINE aw.PostTraumaticAgent|411372, 310.0
29/11 03:47:02 FINE aw.PostTraumaticAgent|421407, 328.0
29/11 03:47:02 FINE aw.PostTraumaticAgent|431376, 322.0
29/11 03:47:02 FINE aw.PostTraumaticAgent|441379, 333.0
29/11 03:47:02 FINE aw.PostTraumaticAgent|451408, 345.0
29/11 03:47:02 FINE aw.PostTraumaticAgent|461388, 358.0
29/11 03:47:02 FINE aw.PostTraumaticAgent|471396, 380.0
29/11 03:47:02 FINE aw.PostTraumaticAgent|481418, 373.0
29/11 03:47:02 FINE aw.PostTraumaticAgent|491402, 383.0
29/11 03:47:02 FINE aw.PostTraumaticAgent|501408, 388.0
29/11 03:47:02 FINE aw.PostTraumaticAgent|511435, 394.0
29/11 03:47:02 FINE aw.PostTraumaticAgent|521415, 391.0
29/11 03:47:02 FINE aw.PostTraumaticAgent|531419, 393.0
29/11 03:47:02 FINE aw.PostTraumaticAgent|Printing (time, price) for Outflight 5 :
29/11 03:47:02 FINE aw.PostTraumaticAgent|1115, 361.0
29/11 03:47:02 FINE aw.PostTraumaticAgent|11095, 353.0
29/11 03:47:02 FINE aw.PostTraumaticAgent|21102, 357.0
29/11 03:47:02 FINE aw.PostTraumaticAgent|31135, 355.0
29/11 03:47:02 FINE aw.PostTraumaticAgent|41111, 364.0
29/11 03:47:02 FINE aw.PostTraumaticAgent|51155, 363.0
29/11 03:47:02 FINE aw.PostTraumaticAgent|61173, 362.0
29/11 03:47:02 FINE aw.PostTraumaticAgent|71130, 359.0
29/11 03:47:02 FINE aw.PostTraumaticAgent|81135, 364.0
29/11 03:47:02 FINE aw.PostTraumaticAgent|91174, 371.0
29/11 03:47:02 FINE aw.PostTraumaticAgent|101143, 370.0
29/11 03:47:02 FINE aw.PostTraumaticAgent|111149, 374.0
29/11 03:47:02 FINE aw.PostTraumaticAgent|121200, 375.0
29/11 03:47:02 FINE aw.PostTraumaticAgent|131158, 367.0
29/11 03:47:02 FINE aw.PostTraumaticAgent|147267, 365.0
29/11 03:47:02 FINE aw.PostTraumaticAgent|151216, 370.0
29/11 03:47:02 FINE aw.PostTraumaticAgent|161182, 374.0
29/11 03:47:02 FINE aw.PostTraumaticAgent|171182, 370.0
29/11 03:47:02 FINE aw.PostTraumaticAgent|181262, 376.0
29/11 03:47:02 FINE aw.PostTraumaticAgent|191190, 369.0
29/11 03:47:02 FINE aw.PostTraumaticAgent|201191, 369.0
29/11 03:47:02 FINE aw.PostTraumaticAgent|211224, 372.0
29/11 03:47:02 FINE aw.PostTraumaticAgent|221205, 362.0
29/11 03:47:02 FINE aw.PostTraumaticAgent|231208, 361.0
29/11 03:47:02 FINE aw.PostTraumaticAgent|241266, 354.0
29/11 03:47:02 FINE aw.PostTraumaticAgent|251220, 346.0
29/11 03:47:02 FINE aw.PostTraumaticAgent|261221, 350.0
29/11 03:47:02 FINE aw.PostTraumaticAgent|271247, 353.0
29/11 03:47:02 FINE aw.PostTraumaticAgent|281230, 357.0
29/11 03:47:02 FINE aw.PostTraumaticAgent|291235, 348.0
29/11 03:47:02 FINE aw.PostTraumaticAgent|301293, 343.0
29/11 03:47:02 FINE aw.PostTraumaticAgent|311243, 344.0
29/11 03:47:02 FINE aw.PostTraumaticAgent|321248, 334.0
29/11 03:47:02 FINE aw.PostTraumaticAgent|331284, 325.0
29/11 03:47:02 FINE aw.PostTraumaticAgent|341259, 327.0
29/11 03:47:02 FINE aw.PostTraumaticAgent|351291, 329.0
29/11 03:47:02 FINE aw.PostTraumaticAgent|361385, 319.0
29/11 03:47:02 FINE aw.PostTraumaticAgent|371343, 309.0
29/11 03:47:02 FINE aw.PostTraumaticAgent|381373, 311.0
29/11 03:47:02 FINE aw.PostTraumaticAgent|391389, 312.0
29/11 03:47:02 FINE aw.PostTraumaticAgent|401365, 310.0
29/11 03:47:02 FINE aw.PostTraumaticAgent|411372, 301.0
29/11 03:47:02 FINE aw.PostTraumaticAgent|421407, 299.0
29/11 03:47:02 FINE aw.PostTraumaticAgent|431376, 297.0
29/11 03:47:02 FINE aw.PostTraumaticAgent|441379, 294.0
29/11 03:47:02 FINE aw.PostTraumaticAgent|451408, 289.0
29/11 03:47:02 FINE aw.PostTraumaticAgent|461388, 282.0
29/11 03:47:02 FINE aw.PostTraumaticAgent|471396, 280.0
29/11 03:47:02 FINE aw.PostTraumaticAgent|481418, 270.0
29/11 03:47:02 FINE aw.PostTraumaticAgent|491402, 265.0
29/11 03:47:02 FINE aw.PostTraumaticAgent|501408, 269.0
29/11 03:47:02 FINE aw.PostTraumaticAgent|511435, 273.0
29/11 03:47:02 FINE aw.PostTraumaticAgent|521415, 277.0
29/11 03:47:02 FINE aw.PostTraumaticAgent|531419, 283.0
29/11 03:47:02 FINE aw.PostTraumaticAgent|Finish Printing All Flight Prices
29/11 03:47:02 FINE aw.PostTraumaticAgent|Start Printing All Hotel Prices
29/11 03:47:02 FINE aw.PostTraumaticAgent|Printing (time, price) for Cheap Hotel 1 :
29/11 03:47:02 FINE aw.PostTraumaticAgent|1147, 0.0
29/11 03:47:02 FINE aw.PostTraumaticAgent|61111, 0.0
29/11 03:47:02 FINE aw.PostTraumaticAgent|121139, 0.0
29/11 03:47:02 FINE aw.PostTraumaticAgent|181178, 0.0
29/11 03:47:02 FINE aw.PostTraumaticAgent|241205, 0.0
29/11 03:47:02 FINE aw.PostTraumaticAgent|Printing (time, price) for Cheap Hotel 2 :
29/11 03:47:02 FINE aw.PostTraumaticAgent|1153, 0.0
29/11 03:47:02 FINE aw.PostTraumaticAgent|61111, 0.0
29/11 03:47:02 FINE aw.PostTraumaticAgent|Printing (time, price) for Cheap Hotel 3 :
29/11 03:47:02 FINE aw.PostTraumaticAgent|1155, 0.0
29/11 03:47:02 FINE aw.PostTraumaticAgent|61115, 226.0
29/11 03:47:02 FINE aw.PostTraumaticAgent|121140, 228.0
29/11 03:47:02 FINE aw.PostTraumaticAgent|181186, 234.0
29/11 03:47:02 FINE aw.PostTraumaticAgent|241207, 246.0
29/11 03:47:02 FINE aw.PostTraumaticAgent|301234, 271.0
29/11 03:47:02 FINE aw.PostTraumaticAgent|Printing (time, price) for Cheap Hotel 4 :
29/11 03:47:02 FINE aw.PostTraumaticAgent|1158, 0.0
29/11 03:47:02 FINE aw.PostTraumaticAgent|61117, 1.0
29/11 03:47:02 FINE aw.PostTraumaticAgent|121146, 3.0
29/11 03:47:02 FINE aw.PostTraumaticAgent|181193, 5.0
29/11 03:47:02 FINE aw.PostTraumaticAgent|241216, 5.0
29/11 03:47:02 FINE aw.PostTraumaticAgent|301236, 8.0
29/11 03:47:02 FINE aw.PostTraumaticAgent|361326, 8.0
29/11 03:47:02 FINE aw.PostTraumaticAgent|421365, 13.0
29/11 03:47:02 FINE aw.PostTraumaticAgent|481388, 15.0
29/11 03:47:02 FINE aw.PostTraumaticAgent|Printing (time, price) for Good Hotel 1 :
29/11 03:47:02 FINE aw.PostTraumaticAgent|1161, 0.0
29/11 03:47:02 FINE aw.PostTraumaticAgent|61119, 0.0
29/11 03:47:02 FINE aw.PostTraumaticAgent|121149, 0.0
29/11 03:47:02 FINE aw.PostTraumaticAgent|181194, 0.0
29/11 03:47:02 FINE aw.PostTraumaticAgent|Printing (time, price) for Good Hotel 2 :
29/11 03:47:02 FINE aw.PostTraumaticAgent|1163, 0.0
29/11 03:47:02 FINE aw.PostTraumaticAgent|61123, 0.0
29/11 03:47:02 FINE aw.PostTraumaticAgent|121154, 0.0
29/11 03:47:02 FINE aw.PostTraumaticAgent|181201, 0.0
29/11 03:47:02 FINE aw.PostTraumaticAgent|241223, 0.0
29/11 03:47:02 FINE aw.PostTraumaticAgent|301245, 0.0
29/11 03:47:02 FINE aw.PostTraumaticAgent|361333, 0.0
29/11 03:47:02 FINE aw.PostTraumaticAgent|421378, 0.0
29/11 03:47:02 FINE aw.PostTraumaticAgent|Printing (time, price) for Good Hotel 3 :
29/11 03:47:02 FINE aw.PostTraumaticAgent|1166, 0.0
29/11 03:47:02 FINE aw.PostTraumaticAgent|61127, 0.0
29/11 03:47:02 FINE aw.PostTraumaticAgent|121169, 136.0
29/11 03:47:02 FINE aw.PostTraumaticAgent|Printing (time, price) for Good Hotel 4 :
29/11 03:47:02 FINE aw.PostTraumaticAgent|1172, 0.0
29/11 03:47:02 FINE aw.PostTraumaticAgent|61129, 0.0
29/11 03:47:02 FINE aw.PostTraumaticAgent|121171, 0.0
29/11 03:47:02 FINE aw.PostTraumaticAgent|181216, 0.0
29/11 03:47:02 FINE aw.PostTraumaticAgent|241237, 0.0
29/11 03:47:02 FINE aw.PostTraumaticAgent|301252, 0.0
29/11 03:47:02 FINE aw.PostTraumaticAgent|361338, 0.0
29/11 03:47:02 FINE aw.PostTraumaticAgent|Finish Printing All Hotel Prices
29/11 03:47:02 FINE aw.PostTraumaticAgent|Game Stopped!
29/11 03:47:02 FINE aw.TACAgent|Game log complete
************************************************************
* Game log complete
************************************************************


